%!PS-Adobe-2.0 EPSF-2.0
%%BoundingBox:  0 0 567 544
%%Title: plots/CorrelationMatrixS.eps: Correlations between MVA input variables (signal)
%%Creator: ROOT Version 5.30/04
%%CreationDate: Thu Sep  6 17:21:44 2012
%%EndComments
%%BeginProlog
80 dict begin
/s {stroke} def /l {lineto} def /m {moveto} def /t {translate} def
/r {rotate} def /rl {roll}  def /R {repeat} def
/d {rlineto} def /rm {rmoveto} def /gr {grestore} def /f {eofill} def
/c {setrgbcolor} def /black {0 setgray} def /sd {setdash} def
/cl {closepath} def /sf {scalefont setfont} def /lw {setlinewidth} def
/box {m dup 0 exch d exch 0 d 0 exch neg d cl} def
/NC{systemdict begin initclip end}def/C{NC box clip newpath}def
/bl {box s} def /bf {box f} def /Y { 0 exch d} def /X { 0 d} def 
/K {{pop pop 0 moveto} exch kshow} bind def
/ita {/ang 15 def gsave [1 0 ang dup sin exch cos div 1 0 0] concat} def 
/mp {newpath /y exch def /x exch def} def
/side {[w .77 mul w .23 mul] .385 w mul sd w 0 l currentpoint t -144 r} def
/mr {mp x y w2 0 360 arc} def /m24 {mr s} def /m20 {mr f} def
/mb {mp x y w2 add m w2 neg 0 d 0 w neg d w 0 d 0 w d cl} def
/mt {mp x y w2 add m w2 neg w neg d w 0 d cl} def
/m21 {mb f} def /m25 {mb s} def /m22 {mt f} def /m26{mt s} def
/m23 {mp x y w2 sub m w2 w d w neg 0 d cl f} def
/m27 {mp x y w2 add m w3 neg w2 neg d w3 w2 neg d w3 w2 d cl s} def
/m28 {mp x w2 sub y w2 sub w3 add m w3 0 d  0 w3 neg d w3 0 d 0 w3 d w3 0 d  0 w3 d w3 neg 0 d 0 w3 d w3 neg 0 d 0 w3 neg d w3 neg 0 d cl s } def
/m29 {mp gsave x w2 sub y w2 add w3 sub m currentpoint t 4 {side} repeat cl fill gr} def
/m30 {mp gsave x w2 sub y w2 add w3 sub m currentpoint t 4 {side} repeat cl s gr} def
/m31 {mp x y w2 sub m 0 w d x w2 sub y m w 0 d x w2 sub y w2 add m w w neg d x w2 sub y w2 sub m w w d s} def
/m32 {mp x y w2 sub m w2 w d w neg 0 d cl s} def
/m33 {mp x y w2 add m w3 neg w2 neg d w3 w2 neg d w3 w2 d cl f} def
/m34 {mp x w2 sub y w2 sub w3 add m w3 0 d  0 w3 neg d w3 0 d 0 w3 d w3 0 d  0 w3 d w3 neg 0 d 0 w3 d w3 neg 0 d 0 w3 neg d w3 neg 0 d cl f } def
/m2 {mp x y w2 sub m 0 w d x w2 sub y m w 0 d s} def
/m5 {mp x w2 sub y w2 sub m w w d x w2 sub y w2 add m w w neg d s} def
/reEncode {exch findfont dup length dict begin {1 index /FID eq  {pop pop} {def} ifelse } forall /Encoding exch def currentdict end dup /FontName get exch definefont pop } def [/Times-Bold /Times-Italic /Times-BoldItalic /Helvetica /Helvetica-Oblique
 /Helvetica-Bold /Helvetica-BoldOblique /Courier /Courier-Oblique /Courier-Bold /Courier-BoldOblique /Times-Roman /AvantGarde-Book /AvantGarde-BookOblique /AvantGarde-Demi /AvantGarde-DemiOblique /Bookman-Demi /Bookman-DemiItalic /Bookman-Light
 /Bookman-LightItalic /Helvetica-Narrow /Helvetica-Narrow-Bold /Helvetica-Narrow-BoldOblique /Helvetica-Narrow-Oblique /NewCenturySchlbk-Roman /NewCenturySchlbk-Bold /NewCenturySchlbk-BoldItalic /NewCenturySchlbk-Italic /Palatino-Bold
 /Palatino-BoldItalic /Palatino-Italic /Palatino-Roman ] {ISOLatin1Encoding reEncode } forall%%EndProlog
%%BeginSetup
%%EndSetup
newpath  gsave  .25 .25 scale  gsave  0 0 t 0.490196 0.545098 0.615686 c[  ] 0 sd 3 lw 0.941176 0.941176 0.941176 c 2268 2176 0 0 bf black 1 1 0.992157 c 1633 1567 340 326 bf black 1633 1567 340 326 bl 1 1 0.992157 c 1633 1567 340 326 bf black 1633
 1567 340 326 bl 1 1 1 c 1 7.94729e-08 0 c 544 523 340 326 bf 0 1 0.0533334 c 545 523 884 326 bf 0.133333 1 0 c 544 523 1429 326 bf 0 1 0.0533334 c 544 522 340 849 bf 1 7.94729e-08 0 c 545 522 884 849 bf 1 0.186667 0 c 544 522 1429 849 bf 0.133333 1
 0 c 544 522 340 1371 bf 1 0.186667 0 c 545 522 884 1371 bf 1 7.94729e-08 0 c 544 522 1429 1371 bf 0.386667 0 1 c 102 79 1984 326 bf 0.2 0 1 c 102 78 1984 405 bf 0 0.0800001 1 c 102 79 1984 483 bf 0 0.266667 1 c 102 78 1984 562 bf 0 0.546667 1 c 102
 78 1984 640 bf 0 0.733333 1 c 102 79 1984 718 bf 0 1 0.986667 c 102 78 1984 797 bf 0 1 0.8 c 102 78 1984 875 bf 0 1 0.52 c 102 79 1984 953 bf 0 1 0.333333 c 102 78 1984 1032 bf 0 1 0.0533334 c 102 78 1984 1110 bf 0.133333 1 0 c 102 79 1984 1188 bf
 0.413333 1 0 c 102 78 1984 1267 bf 0.6 1 0 c 102 78 1984 1345 bf 0.88 1 0 c 102 79 1984 1423 bf 1 0.933333 0 c 102 78 1984 1502 bf 1 0.653333 0 c 102 78 1984 1580 bf 1 0.466667 0 c 102 79 1984 1658 bf 1 0.186667 0 c 102 78 1984 1737 bf 1 7.94729e-08
 0 c 102 78 1984 1815 bf black 2086 326 m 1567 Y s 2037 326 m 49 X s 2037 483 m 49 X s 2037 640 m 49 X s 2037 797 m 49 X s 2037 953 m 49 X s 2037 1110 m 49 X s 2037 1267 m 49 X s 2037 1423 m 49 X s 2037 1580 m 49 X s 2037 1737 m 49 X s 2037 1893 m 49
 X s
 gsave  2268 2176 0 0 C 2096.5 300.587 t 0 r /Helvetica findfont 72.293 sf 0 0 m (\255100) show NC gr 
 gsave  2268 2176 0 0 C 2096.5 456.587 t 0 r /Helvetica findfont 72.293 sf 0 0 m (\25580) show NC gr 
 gsave  2268 2176 0 0 C 2096.5 616.393 t 0 r /Helvetica findfont 72.293 sf 0 0 m (\25560) show NC gr 
 gsave  2268 2176 0 0 C 2096.5 772.393 t 0 r /Helvetica findfont 72.293 sf 0 0 m (\25540) show NC gr 
 gsave  2268 2176 0 0 C 2096.5 928.394 t 0 r /Helvetica findfont 72.293 sf 0 0 m (\25520) show NC gr 
 gsave  2268 2176 0 0 C 2096.5 1084.39 t 0 r /Helvetica findfont 72.293 sf 0 0 m (0) show NC gr 
 gsave  2268 2176 0 0 C 2096.5 1240.4 t 0 r /Helvetica findfont 72.293 sf 0 0 m (20) show NC gr 
 gsave  2268 2176 0 0 C 2096.5 1400.2 t 0 r /Helvetica findfont 72.293 sf 0 0 m (40) show NC gr 
 gsave  2268 2176 0 0 C 2096.5 1556.2 t 0 r /Helvetica findfont 72.293 sf 0 0 m (60) show NC gr 
 gsave  2268 2176 0 0 C 2096.5 1712.2 t 0 r /Helvetica findfont 72.293 sf 0 0 m (80) show NC gr 
 gsave  2268 2176 0 0 C 2096.5 1868.2 t 0 r /Helvetica findfont 72.293 sf 0 0 m (100) show NC gr  1 1 1 c black 340 326 m 1633 X s
 gsave  2268 2176 0 0 C 597.368 258.733 t -19 r /Helvetica findfont 53.2685 sf 0 0 m (deltaPhiWH) show NC gr 
 gsave  2268 2176 0 0 C 1145.27 262.538 t -19 r /Helvetica findfont 53.2685 sf 0 0 m (jetPt.array[0]) show NC gr 
 gsave  2268 2176 0 0 C 1693.18 262.538 t -19 r /Helvetica findfont 53.2685 sf 0 0 m (fatjetPt.array[0]) show NC gr  340 373 m -47 Y s[ 4 8] 0 sd 340 1893 m -1567 Y s[  ] 0 sd 884 373 m -47 Y s[ 4 8] 0 sd 884 1893 m -1567 Y s[  ] 0 sd 1429 373 m -47
 Y s[ 4 8] 0 sd 1429 1893 m -1567 Y s[  ] 0 sd 1973 373 m -47 Y s[ 4 8] 0 sd 1973 1893 m -1567 Y s[  ] 0 sd 340 1893 m 1633 X s 340 1846 m 47 Y s 884 1846 m 47 Y s 1429 1846 m 47 Y s 1973 1846 m 47 Y s 340 326 m 1567 Y s
 gsave  2268 2176 0 0 C 34.244 566.929 t 0 r /Helvetica findfont 53.2685 sf 0 0 m (deltaPhiWH) show NC gr 
 gsave  2268 2176 0 0 C 7.60979 1092 t 0 r /Helvetica findfont 53.2685 sf 0 0 m (jetPt.array[0]) show NC gr 
 gsave  2268 2176 0 0 C -45.6587 1613.27 t 0 r /Helvetica findfont 53.2685 sf 0 0 m (fatjetPt.array[0]) show NC gr  389 326 m -49 X s[ 4 8] 0 sd 1973 326 m -1633 X s[  ] 0 sd 389 849 m -49 X s[ 4 8] 0 sd 1973 849 m -1633 X s[  ] 0 sd 389 1371 m -49 X
 s[ 4 8] 0 sd 1973 1371 m -1633 X s[  ] 0 sd 389 1893 m -49 X s[ 4 8] 0 sd 1973 1893 m -1633 X s[  ] 0 sd 1973 326 m 1567 Y s 1924 326 m 49 X s 1924 849 m 49 X s 1924 1371 m 49 X s 1924 1893 m 49 X s 0.490196 0.545098 0.615686 c 0.364706 0.419608
 0.490196 c 1362 124 23 2042 bf 0.490196 0.545098 0.615686 c 23 2042 m 1362 X s 1385 2042 m 124 Y s 1385 2166 m -1362 X s 23 2166 m -124 Y s 1 1 1 c black 1 1 1 c
 gsave  2268 2176 0 0 C 87.5126 2077.47 t 0 r /Helvetica-Bold findfont 98.9272 sf 0 0 m (Correlation Matrix \(signal\)) show NC gr  black 1 1 1 c
 gsave  2268 2176 0 0 C 559.319 566.929 t 0 r /Helvetica-Bold findfont 60.8783 sf 0 0 m (100) show NC gr  black 1 1 1 c
 gsave  2268 2176 0 0 C 1658.93 566.929 t 0 r /Helvetica-Bold findfont 60.8783 sf 0 0 m ( 10) show NC gr  black 1 1 1 c
 gsave  2268 2176 0 0 C 1103.42 1088.2 t 0 r /Helvetica-Bold findfont 60.8783 sf 0 0 m (100) show NC gr  black 1 1 1 c
 gsave  2268 2176 0 0 C 1658.93 1088.2 t 0 r /Helvetica-Bold findfont 60.8783 sf 0 0 m ( 85) show NC gr  black 1 1 1 c
 gsave  2268 2176 0 0 C 566.929 1609.47 t 0 r /Helvetica-Bold findfont 60.8783 sf 0 0 m ( 10) show NC gr  black 1 1 1 c
 gsave  2268 2176 0 0 C 1111.03 1609.47 t 0 r /Helvetica-Bold findfont 60.8783 sf 0 0 m ( 85) show NC gr  black 1 1 1 c
 gsave  2268 2176 0 0 C 1651.32 1609.47 t 0 r /Helvetica-Bold findfont 60.8783 sf 0 0 m (100) show NC gr  black
 gsave  2268 2176 0 0 C 1201.89 1915.23 t 0 r /Helvetica-Bold findfont 53.2685 sf 0 0 m (Linear correlation coefficients in %) show NC gr 
 gr  gr showpage
end
%%EOF
