%!PS-Adobe-2.0 EPSF-2.0
%%BoundingBox:  0 0 567 420
%%Title: plots/mva_BDT.eps: TMVA response BDT
%%Creator: ROOT Version 5.34/02
%%CreationDate: Mon Jan 28 03:08:33 2013
%%EndComments
%%BeginProlog
80 dict begin
/s {stroke} def /l {lineto} def /m {moveto} def /t {translate} def
/r {rotate} def /rl {roll}  def /R {repeat} def
/d {rlineto} def /rm {rmoveto} def /gr {grestore} def /f {eofill} def
/c {setrgbcolor} def /black {0 setgray} def /sd {setdash} def
/cl {closepath} def /sf {scalefont setfont} def /lw {setlinewidth} def
/box {m dup 0 exch d exch 0 d 0 exch neg d cl} def
/NC{systemdict begin initclip end}def/C{NC box clip newpath}def
/bl {box s} def /bf {box f} def /Y { 0 exch d} def /X { 0 d} def 
/K {{pop pop 0 moveto} exch kshow} bind def
/ita {/ang 15 def gsave [1 0 ang dup sin exch cos div 1 0 0] concat} def 
/mp {newpath /y exch def /x exch def} def
/side {[w .77 mul w .23 mul] .385 w mul sd w 0 l currentpoint t -144 r} def
/mr {mp x y w2 0 360 arc} def /m24 {mr s} def /m20 {mr f} def
/mb {mp x y w2 add m w2 neg 0 d 0 w neg d w 0 d 0 w d cl} def
/mt {mp x y w2 add m w2 neg w neg d w 0 d cl} def
/m21 {mb f} def /m25 {mb s} def /m22 {mt f} def /m26{mt s} def
/m23 {mp x y w2 sub m w2 w d w neg 0 d cl f} def
/m27 {mp x y w2 add m w3 neg w2 neg d w3 w2 neg d w3 w2 d cl s} def
/m28 {mp x w2 sub y w2 sub w3 add m w3 0 d  0 w3 neg d w3 0 d 0 w3 d w3 0 d  0 w3 d w3 neg 0 d 0 w3 d w3 neg 0 d 0 w3 neg d w3 neg 0 d cl s } def
/m29 {mp gsave x w2 sub y w2 add w3 sub m currentpoint t 4 {side} repeat cl fill gr} def
/m30 {mp gsave x w2 sub y w2 add w3 sub m currentpoint t 4 {side} repeat cl s gr} def
/m31 {mp x y w2 sub m 0 w d x w2 sub y m w 0 d x w2 sub y w2 add m w w neg d x w2 sub y w2 sub m w w d s} def
/m32 {mp x y w2 sub m w2 w d w neg 0 d cl s} def
/m33 {mp x y w2 add m w3 neg w2 neg d w3 w2 neg d w3 w2 d cl f} def
/m34 {mp x w2 sub y w2 sub w3 add m w3 0 d  0 w3 neg d w3 0 d 0 w3 d w3 0 d  0 w3 d w3 neg 0 d 0 w3 d w3 neg 0 d 0 w3 neg d w3 neg 0 d cl f } def
/m2 {mp x y w2 sub m 0 w d x w2 sub y m w 0 d s} def
/m5 {mp x w2 sub y w2 sub m w w d x w2 sub y w2 add m w w neg d s} def
/reEncode {exch findfont dup length dict begin {1 index /FID eq  {pop pop} {def} ifelse } forall /Encoding exch def currentdict end dup /FontName get exch definefont pop } def [/Times-Bold /Times-Italic /Times-BoldItalic /Helvetica /Helvetica-Oblique
 /Helvetica-Bold /Helvetica-BoldOblique /Courier /Courier-Oblique /Courier-Bold /Courier-BoldOblique /Times-Roman /AvantGarde-Book /AvantGarde-BookOblique /AvantGarde-Demi /AvantGarde-DemiOblique /Bookman-Demi /Bookman-DemiItalic /Bookman-Light
 /Bookman-LightItalic /Helvetica-Narrow /Helvetica-Narrow-Bold /Helvetica-Narrow-BoldOblique /Helvetica-Narrow-Oblique /NewCenturySchlbk-Roman /NewCenturySchlbk-Bold /NewCenturySchlbk-BoldItalic /NewCenturySchlbk-Italic /Palatino-Bold
 /Palatino-BoldItalic /Palatino-Italic /Palatino-Roman ] {ISOLatin1Encoding reEncode } forall
%%EndProlog
%%BeginSetup
%%EndSetup
newpath  gsave  .25 .25 scale  gsave  0 0 t 0.490196 0.545098 0.615686 c[  ] 0 sd 3 lw 0.941176 0.941176 0.941176 c 2268 1682 0 0 bf black 1 1 0.992157 c 1916 1312 238 202 bf black 1916 1312 238 202 bl 1 1 0.992157 c 1916 1312 238 202 bf black 1916
 1312 238 202 bl 238 202 m 1916 X s
 gsave  2268 1682 0 0 C 1662.74 30.4391 t 0 r /Helvetica-Bold findfont 72.293 sf 0 0 m (BDT response) show NC gr  353 244 m -42 Y s 416 223 m -21 Y s 480 223 m -21 Y s 544 223 m -21 Y s 608 244 m -42 Y s 672 223 m -21 Y s 736 223 m -21 Y s 800 223 m
 -21 Y s 864 244 m -42 Y s 928 223 m -21 Y s 992 223 m -21 Y s 1056 223 m -21 Y s 1119 244 m -42 Y s 1183 223 m -21 Y s 1247 223 m -21 Y s 1311 223 m -21 Y s 1375 244 m -42 Y s 1439 223 m -21 Y s 1503 223 m -21 Y s 1567 223 m -21 Y s 1631 244 m -42 Y
 s 1695 223 m -21 Y s 1759 223 m -21 Y s 1822 223 m -21 Y s 1886 244 m -42 Y s 1950 223 m -21 Y s 2014 223 m -21 Y s 2078 223 m -21 Y s 2142 244 m -42 Y s 353 244 m -42 Y s 289 223 m -21 Y s 2142 244 m -42 Y s
 gsave  2268 1682 0 0 C 292.977 129.366 t 0 r /Helvetica-Bold findfont 64.6832 sf 0 0 m (\2550.8) show NC gr 
 gsave  2268 1682 0 0 C 547.905 129.366 t 0 r /Helvetica-Bold findfont 64.6832 sf 0 0 m (\2550.6) show NC gr 
 gsave  2268 1682 0 0 C 806.637 129.366 t 0 r /Helvetica-Bold findfont 64.6832 sf 0 0 m (\2550.4) show NC gr 
 gsave  2268 1682 0 0 C 1061.57 129.366 t 0 r /Helvetica-Bold findfont 64.6832 sf 0 0 m (\2550.2) show NC gr 
 gsave  2268 1682 0 0 C 1354.54 129.366 t 0 r /Helvetica-Bold findfont 64.6832 sf 0 0 m (0) show NC gr 
 gsave  2268 1682 0 0 C 1582.84 129.366 t 0 r /Helvetica-Bold findfont 64.6832 sf 0 0 m (0.2) show NC gr 
 gsave  2268 1682 0 0 C 1837.76 129.366 t 0 r /Helvetica-Bold findfont 64.6832 sf 0 0 m (0.4) show NC gr 
 gsave  2268 1682 0 0 C 2092.69 129.366 t 0 r /Helvetica-Bold findfont 64.6832 sf 0 0 m (0.6) show NC gr  238 1514 m 1916 X s 353 1471 m 43 Y s 416 1492 m 22 Y s 480 1492 m 22 Y s 544 1492 m 22 Y s 608 1471 m 43 Y s 672 1492 m 22 Y s 736 1492 m 22 Y
 s 800 1492 m 22 Y s 864 1471 m 43 Y s 928 1492 m 22 Y s 992 1492 m 22 Y s 1056 1492 m 22 Y s 1119 1471 m 43 Y s 1183 1492 m 22 Y s 1247 1492 m 22 Y s 1311 1492 m 22 Y s 1375 1471 m 43 Y s 1439 1492 m 22 Y s 1503 1492 m 22 Y s 1567 1492 m 22 Y s 1631
 1471 m 43 Y s 1695 1492 m 22 Y s 1759 1492 m 22 Y s 1822 1492 m 22 Y s 1886 1471 m 43 Y s 1950 1492 m 22 Y s 2014 1492 m 22 Y s 2078 1492 m 22 Y s 2142 1471 m 43 Y s 353 1471 m 43 Y s 289 1492 m 22 Y s 2142 1471 m 43 Y s 238 202 m 1312 Y s
 gsave  2268 1682 0 0 C 64.6832 1430.64 t 90 r /Helvetica-Bold findfont 72.293 sf 0 0 m (dx) show NC gr 
 gsave  2268 1682 0 0 C 30.4391 1419.23 t 90 r /Helvetica-Bold findfont 45.6587 sf 0 0 m ( ) show NC gr 
 gsave  2268 1682 0 0 C 64.6832 1392.59 t 90 r /Helvetica-Bold findfont 72.293 sf 0 0 m (/) show NC gr 
 gsave  2268 1682 0 0 C 30.4391 1381.18 t 90 r /Helvetica-Bold findfont 45.6587 sf 0 0 m ( ) show NC gr 
 gsave  2268 1682 0 0 C 60.8783 1107.22 t 90 r /Helvetica-Bold findfont 72.293 sf 0 0 m (\(1/N\) dN) show NC gr  291 202 m -53 X s 265 231 m -27 X s 265 261 m -27 X s 265 291 m -27 X s 265 320 m -27 X s 291 350 m -53 X s 265 380 m -27 X s 265 409 m
 -27 X s 265 439 m -27 X s 265 469 m -27 X s 291 498 m -53 X s 265 528 m -27 X s 265 558 m -27 X s 265 587 m -27 X s 265 617 m -27 X s 291 647 m -53 X s 265 676 m -27 X s 265 706 m -27 X s 265 736 m -27 X s 265 765 m -27 X s 291 795 m -53 X s 265 825
 m -27 X s 265 854 m -27 X s 265 884 m -27 X s 265 913 m -27 X s 291 943 m -53 X s 265 973 m -27 X s 265 1002 m -27 X s 265 1032 m -27 X s 265 1062 m -27 X s 291 1091 m -53 X s 265 1121 m -27 X s 265 1151 m -27 X s 265 1180 m -27 X s 265 1210 m -27 X
 s 291 1240 m -53 X s 265 1269 m -27 X s 265 1299 m -27 X s 265 1329 m -27 X s 265 1358 m -27 X s 291 1388 m -53 X s 291 1388 m -53 X s 265 1418 m -27 X s 265 1447 m -27 X s 265 1477 m -27 X s 265 1507 m -27 X s
 gsave  2268 1682 0 0 C 175.025 178.83 t 0 r /Helvetica-Bold findfont 64.6832 sf 0 0 m (0) show NC gr 
 gsave  2268 1682 0 0 C 117.952 327.221 t 0 r /Helvetica-Bold findfont 64.6832 sf 0 0 m (0.5) show NC gr 
 gsave  2268 1682 0 0 C 182.635 471.807 t 0 r /Helvetica-Bold findfont 64.6832 sf 0 0 m (1) show NC gr 
 gsave  2268 1682 0 0 C 117.952 620.198 t 0 r /Helvetica-Bold findfont 64.6832 sf 0 0 m (1.5) show NC gr 
 gsave  2268 1682 0 0 C 175.025 768.588 t 0 r /Helvetica-Bold findfont 64.6832 sf 0 0 m (2) show NC gr 
 gsave  2268 1682 0 0 C 117.952 916.979 t 0 r /Helvetica-Bold findfont 64.6832 sf 0 0 m (2.5) show NC gr 
 gsave  2268 1682 0 0 C 175.025 1065.37 t 0 r /Helvetica-Bold findfont 64.6832 sf 0 0 m (3) show NC gr 
 gsave  2268 1682 0 0 C 117.952 1213.76 t 0 r /Helvetica-Bold findfont 64.6832 sf 0 0 m (3.5) show NC gr 
 gsave  2268 1682 0 0 C 171.22 1362.15 t 0 r /Helvetica-Bold findfont 64.6832 sf 0 0 m (4) show NC gr  2154 202 m 1312 Y s 2101 202 m 53 X s 2128 231 m 26 X s 2128 261 m 26 X s 2128 291 m 26 X s 2128 320 m 26 X s 2101 350 m 53 X s 2128 380 m 26 X s
 2128 409 m 26 X s 2128 439 m 26 X s 2128 469 m 26 X s 2101 498 m 53 X s 2128 528 m 26 X s 2128 558 m 26 X s 2128 587 m 26 X s 2128 617 m 26 X s 2101 647 m 53 X s 2128 676 m 26 X s 2128 706 m 26 X s 2128 736 m 26 X s 2128 765 m 26 X s 2101 795 m 53 X
 s 2128 825 m 26 X s 2128 854 m 26 X s 2128 884 m 26 X s 2128 913 m 26 X s 2101 943 m 53 X s 2128 973 m 26 X s 2128 1002 m 26 X s 2128 1032 m 26 X s 2128 1062 m 26 X s 2101 1091 m 53 X s 2128 1121 m 26 X s 2128 1151 m 26 X s 2128 1180 m 26 X s 2128
 1210 m 26 X s 2101 1240 m 53 X s 2128 1269 m 26 X s 2128 1299 m 26 X s 2128 1329 m 26 X s 2128 1358 m 26 X s 2101 1388 m 53 X s 2101 1388 m 53 X s 2128 1418 m 26 X s 2128 1447 m 26 X s 2128 1477 m 26 X s 2128 1507 m 26 X s 0.490196 0.545098 0.615686
 c 0.95 0.95 0.95 c 0.490196 0.545098 0.615686 c 680 202 238 1312 bl 238 1312 m 680 X s 918 1312 m 202 Y s 918 1514 m -680 X s 238 1514 m -202 Y s black 0.49 0.6 0.82 c 269 1428 m 143 X 70 Y -143 X f 0 0 0.933333 c 6 lw 269 1498 m 143 X s 269 1428 m
 143 X s 412 1428 m 70 Y s 269 1428 m 70 Y s black 1 0 0 c 3 lw 412 1374 m -47 -47 d s 387 1398 m -70 -71 d s 339 1398 m -70 -71 d s 291 1398 m -22 -23 d s 6 lw 0 0 0.933333 c 1 0 0 c 269 1398 m 143 X s 269 1327 m 143 X s 412 1327 m 71 Y s 269 1327 m
 71 Y s 0 0 0.933333 c 0.49 0.6 0.82 c black 3 lw 0.49 0.6 0.82 c 238 202 m 575 X 17 Y 48 X -17 Y 48 X 5 Y 96 X 6 Y 48 X 34 Y 47 X -11 Y 48 X 22 Y 48 X 34 Y 48 X 28 Y 48 X 96 Y 48 X 22 Y 48 X 46 Y 48 X 163 Y 48 X 169 Y 48 X 304 Y 47 X 175 Y 48 X -56
 Y 48 X -62 Y 48 X -367 Y 48 X -326 Y 48 X -108 Y 48 X -61 Y 48 X 28 Y 48 X -40 Y 48 X 51 Y 48 X -68 Y 47 X -28 Y 48 X -56 Y f 6 lw 0 0 0.933333 c 0.49 0.6 0.82 c 0 0 0.933333 c 238 202 m 575 X 17 Y 48 X -17 Y 48 X 5 Y 96 X 6 Y 48 X 34 Y 47 X -11 Y
 48 X 22 Y 48 X 34 Y 48 X 28 Y 48 X 96 Y 48 X 22 Y 48 X 46 Y 48 X 163 Y 48 X 169 Y 48 X 304 Y 47 X 175 Y 48 X -56 Y 48 X -62 Y 48 X -367 Y 48 X -326 Y 48 X -108 Y 48 X -61 Y 48 X 28 Y 48 X -40 Y 48 X 51 Y 48 X -68 Y 47 X -28 Y 48 X -56 Y s 1 0 0 c
 black 3 lw 1 0 0 c 2126 202 m s 2078 202 m s 2030 202 m s 1982 202 m s 1934 202 m s 1886 202 m s 1837 202 m s 1789 202 m s 1743 203 m -2 -1 d s 1697 206 m -4 -4 d s 1656 213 m -11 -11 d s 1618 223 m -21 -21 d s 1579 233 m -30 -31 d s 1533 234 m -32
 -32 d s 1497 246 m -44 -44 d s 1467 265 m -63 -63 d s 1436 281 m -80 -79 d s 1388 282 m -80 -80 d s 1377 319 m -117 -117 d s 1340 330 m -128 -128 d s 1313 351 m -149 -149 d s 1292 378 m -176 -176 d s 1274 408 m -206 -206 d s 1244 426 m -224 -224 d s
 1244 474 m -272 -272 d s 1200 478 m -277 -276 d s 1196 523 m -321 -321 d s 1176 550 m -349 -348 d s 1148 571 m -369 -369 d s 1130 600 m -399 -398 d s 1100 619 m -417 -417 d s 1100 667 m -465 -465 d s 1060 675 m -473 -473 d s 1038 701 m -499 -499 d s
 1005 716 m -515 -514 d s 986 746 m -544 -544 d s 956 763 m -478 -478 d s 459 267 m -29 -30 d s 412 220 m -18 -18 d s 900 756 m -374 -375 d s 482 338 m -4 -5 d s 351 206 m -5 -4 d s 848 752 m -275 -275 d s 549 453 m -23 -24 d s 299 203 m -1 -1 d s
 802 754 m -229 -229 d s 250 202 m s 742 742 m -121 -121 d s 586 586 m -13 -13 d s 695 743 m -26 -26 d s 635 684 m -14 -15 d s 6 lw 238 202 m 48 X 1 Y 48 X 3 Y 48 X 14 Y 48 X 47 Y 48 X 71 Y 48 X 115 Y 47 X 133 Y 48 X 98 Y 48 X 59 Y 48 X -1 Y 48 X 12
 Y 48 X -2 Y 48 X 4 Y 48 X 7 Y 48 X -17 Y 48 X -45 Y 48 X -26 Y 47 X -75 Y 48 X -50 Y 48 X -72 Y 48 X -70 Y 48 X -57 Y 48 X -32 Y 48 X -37 Y 48 X -17 Y 48 X -19 Y 48 X -12 Y 47 X -11 Y 48 X -10 Y 48 X -7 Y 48 X -3 Y 48 X -1 Y 383 X s black 3 lw 238
 202 m 1916 X s 353 244 m -42 Y s 416 223 m -21 Y s 480 223 m -21 Y s 544 223 m -21 Y s 608 244 m -42 Y s 672 223 m -21 Y s 736 223 m -21 Y s 800 223 m -21 Y s 864 244 m -42 Y s 928 223 m -21 Y s 992 223 m -21 Y s 1056 223 m -21 Y s 1119 244 m -42 Y
 s 1183 223 m -21 Y s 1247 223 m -21 Y s 1311 223 m -21 Y s 1375 244 m -42 Y s 1439 223 m -21 Y s 1503 223 m -21 Y s 1567 223 m -21 Y s 1631 244 m -42 Y s 1695 223 m -21 Y s 1759 223 m -21 Y s 1822 223 m -21 Y s 1886 244 m -42 Y s 1950 223 m -21 Y s
 2014 223 m -21 Y s 2078 223 m -21 Y s 2142 244 m -42 Y s 353 244 m -42 Y s 289 223 m -21 Y s 2142 244 m -42 Y s 238 1514 m 1916 X s 353 1471 m 43 Y s 416 1492 m 22 Y s 480 1492 m 22 Y s 544 1492 m 22 Y s 608 1471 m 43 Y s 672 1492 m 22 Y s 736 1492
 m 22 Y s 800 1492 m 22 Y s 864 1471 m 43 Y s 928 1492 m 22 Y s 992 1492 m 22 Y s 1056 1492 m 22 Y s 1119 1471 m 43 Y s 1183 1492 m 22 Y s 1247 1492 m 22 Y s 1311 1492 m 22 Y s 1375 1471 m 43 Y s 1439 1492 m 22 Y s 1503 1492 m 22 Y s 1567 1492 m 22 Y
 s 1631 1471 m 43 Y s 1695 1492 m 22 Y s 1759 1492 m 22 Y s 1822 1492 m 22 Y s 1886 1471 m 43 Y s 1950 1492 m 22 Y s 2014 1492 m 22 Y s 2078 1492 m 22 Y s 2142 1471 m 43 Y s 353 1471 m 43 Y s 289 1492 m 22 Y s 2142 1471 m 43 Y s 238 202 m 1312 Y s
 291 202 m -53 X s 265 231 m -27 X s 265 261 m -27 X s 265 291 m -27 X s 265 320 m -27 X s 291 350 m -53 X s 265 380 m -27 X s 265 409 m -27 X s 265 439 m -27 X s 265 469 m -27 X s 291 498 m -53 X s 265 528 m -27 X s 265 558 m -27 X s 265 587 m -27 X
 s 265 617 m -27 X s 291 647 m -53 X s 265 676 m -27 X s 265 706 m -27 X s 265 736 m -27 X s 265 765 m -27 X s 291 795 m -53 X s 265 825 m -27 X s 265 854 m -27 X s 265 884 m -27 X s 265 913 m -27 X s 291 943 m -53 X s 265 973 m -27 X s 265 1002 m
 -27 X s 265 1032 m -27 X s 265 1062 m -27 X s 291 1091 m -53 X s 265 1121 m -27 X s 265 1151 m -27 X s 265 1180 m -27 X s 265 1210 m -27 X s 291 1240 m -53 X s 265 1269 m -27 X s 265 1299 m -27 X s 265 1329 m -27 X s 265 1358 m -27 X s 291 1388 m
 -53 X s 291 1388 m -53 X s 265 1418 m -27 X s 265 1447 m -27 X s 265 1477 m -27 X s 265 1507 m -27 X s 2154 202 m 1312 Y s 2101 202 m 53 X s 2128 231 m 26 X s 2128 261 m 26 X s 2128 291 m 26 X s 2128 320 m 26 X s 2101 350 m 53 X s 2128 380 m 26 X s
 2128 409 m 26 X s 2128 439 m 26 X s 2128 469 m 26 X s 2101 498 m 53 X s 2128 528 m 26 X s 2128 558 m 26 X s 2128 587 m 26 X s 2128 617 m 26 X s 2101 647 m 53 X s 2128 676 m 26 X s 2128 706 m 26 X s 2128 736 m 26 X s 2128 765 m 26 X s 2101 795 m 53 X
 s 2128 825 m 26 X s 2128 854 m 26 X s 2128 884 m 26 X s 2128 913 m 26 X s 2101 943 m 53 X s 2128 973 m 26 X s 2128 1002 m 26 X s 2128 1032 m 26 X s 2128 1062 m 26 X s 2101 1091 m 53 X s 2128 1121 m 26 X s 2128 1151 m 26 X s 2128 1180 m 26 X s 2128
 1210 m 26 X s 2101 1240 m 53 X s 2128 1269 m 26 X s 2128 1299 m 26 X s 2128 1329 m 26 X s 2128 1358 m 26 X s 2101 1388 m 53 X s 2101 1388 m 53 X s 2128 1418 m 26 X s 2128 1447 m 26 X s 2128 1477 m 26 X s 2128 1507 m 26 X s
 gsave  2268 1682 0 0 C 2211.02 193.403 t 90 r /Helvetica-Bold findfont 45.6587 sf 0 0 m (U/O\255flow \(S,B\): \(0.0, 0.0\)% / \(0.0, 0.0\)%) show NC gr  0.490196 0.545098 0.615686 c 0.364706 0.419608 0.490196 c 1350 96 23 1577 bf 0.490196 0.545098
 0.615686 c 23 1577 m 1350 X s 1373 1577 m 96 Y s 1373 1673 m -1350 X s 23 1673 m -96 Y s 1 1 1 c black 1 1 1 c
 gsave  2268 1682 0 0 C 72.293 1605.67 t 0 r /Helvetica-Bold findfont 76.0979 sf 0 0 m 
 1197 1142 1087 1066 1041 1011 969 948 922 901 859 817 774 753 711 690 660 614 588 567 525 482 436 389 343 301 258 229 208 155 110 47
(TMVA response for classifier: BDT) K NC gr 
 gr  gr showpage
end
%%EOF
