%!PS-Adobe-2.0 EPSF-2.0
%%BoundingBox:  0 0 567 420
%%Title: plots/mva_BDTG.eps: TMVA response BDTG
%%Creator: ROOT Version 5.34/02
%%CreationDate: Mon Jan 28 03:08:32 2013
%%EndComments
%%BeginProlog
80 dict begin
/s {stroke} def /l {lineto} def /m {moveto} def /t {translate} def
/r {rotate} def /rl {roll}  def /R {repeat} def
/d {rlineto} def /rm {rmoveto} def /gr {grestore} def /f {eofill} def
/c {setrgbcolor} def /black {0 setgray} def /sd {setdash} def
/cl {closepath} def /sf {scalefont setfont} def /lw {setlinewidth} def
/box {m dup 0 exch d exch 0 d 0 exch neg d cl} def
/NC{systemdict begin initclip end}def/C{NC box clip newpath}def
/bl {box s} def /bf {box f} def /Y { 0 exch d} def /X { 0 d} def 
/K {{pop pop 0 moveto} exch kshow} bind def
/ita {/ang 15 def gsave [1 0 ang dup sin exch cos div 1 0 0] concat} def 
/mp {newpath /y exch def /x exch def} def
/side {[w .77 mul w .23 mul] .385 w mul sd w 0 l currentpoint t -144 r} def
/mr {mp x y w2 0 360 arc} def /m24 {mr s} def /m20 {mr f} def
/mb {mp x y w2 add m w2 neg 0 d 0 w neg d w 0 d 0 w d cl} def
/mt {mp x y w2 add m w2 neg w neg d w 0 d cl} def
/m21 {mb f} def /m25 {mb s} def /m22 {mt f} def /m26{mt s} def
/m23 {mp x y w2 sub m w2 w d w neg 0 d cl f} def
/m27 {mp x y w2 add m w3 neg w2 neg d w3 w2 neg d w3 w2 d cl s} def
/m28 {mp x w2 sub y w2 sub w3 add m w3 0 d  0 w3 neg d w3 0 d 0 w3 d w3 0 d  0 w3 d w3 neg 0 d 0 w3 d w3 neg 0 d 0 w3 neg d w3 neg 0 d cl s } def
/m29 {mp gsave x w2 sub y w2 add w3 sub m currentpoint t 4 {side} repeat cl fill gr} def
/m30 {mp gsave x w2 sub y w2 add w3 sub m currentpoint t 4 {side} repeat cl s gr} def
/m31 {mp x y w2 sub m 0 w d x w2 sub y m w 0 d x w2 sub y w2 add m w w neg d x w2 sub y w2 sub m w w d s} def
/m32 {mp x y w2 sub m w2 w d w neg 0 d cl s} def
/m33 {mp x y w2 add m w3 neg w2 neg d w3 w2 neg d w3 w2 d cl f} def
/m34 {mp x w2 sub y w2 sub w3 add m w3 0 d  0 w3 neg d w3 0 d 0 w3 d w3 0 d  0 w3 d w3 neg 0 d 0 w3 d w3 neg 0 d 0 w3 neg d w3 neg 0 d cl f } def
/m2 {mp x y w2 sub m 0 w d x w2 sub y m w 0 d s} def
/m5 {mp x w2 sub y w2 sub m w w d x w2 sub y w2 add m w w neg d s} def
/reEncode {exch findfont dup length dict begin {1 index /FID eq  {pop pop} {def} ifelse } forall /Encoding exch def currentdict end dup /FontName get exch definefont pop } def [/Times-Bold /Times-Italic /Times-BoldItalic /Helvetica /Helvetica-Oblique
 /Helvetica-Bold /Helvetica-BoldOblique /Courier /Courier-Oblique /Courier-Bold /Courier-BoldOblique /Times-Roman /AvantGarde-Book /AvantGarde-BookOblique /AvantGarde-Demi /AvantGarde-DemiOblique /Bookman-Demi /Bookman-DemiItalic /Bookman-Light
 /Bookman-LightItalic /Helvetica-Narrow /Helvetica-Narrow-Bold /Helvetica-Narrow-BoldOblique /Helvetica-Narrow-Oblique /NewCenturySchlbk-Roman /NewCenturySchlbk-Bold /NewCenturySchlbk-BoldItalic /NewCenturySchlbk-Italic /Palatino-Bold
 /Palatino-BoldItalic /Palatino-Italic /Palatino-Roman ] {ISOLatin1Encoding reEncode } forall
%%EndProlog
%%BeginSetup
%%EndSetup
newpath  gsave  .25 .25 scale  gsave  0 0 t 0.490196 0.545098 0.615686 c[  ] 0 sd 3 lw 0.941176 0.941176 0.941176 c 2268 1682 0 0 bf black 1 1 0.992157 c 1916 1312 238 202 bf black 1916 1312 238 202 bl 1 1 0.992157 c 1916 1312 238 202 bf black 1916
 1312 238 202 bl 238 202 m 1916 X s
 gsave  2268 1682 0 0 C 1609.47 30.4391 t 0 r /Helvetica-Bold findfont 72.293 sf 0 0 m (BDTG response) show NC gr  238 244 m -42 Y s 334 223 m -21 Y s 430 223 m -21 Y s 526 223 m -21 Y s 621 223 m -21 Y s 717 244 m -42 Y s 813 223 m -21 Y s 909 223 m
 -21 Y s 1005 223 m -21 Y s 1100 223 m -21 Y s 1196 244 m -42 Y s 1292 223 m -21 Y s 1388 223 m -21 Y s 1484 223 m -21 Y s 1579 223 m -21 Y s 1675 244 m -42 Y s 1771 223 m -21 Y s 1867 223 m -21 Y s 1963 223 m -21 Y s 2059 223 m -21 Y s 2154 244 m
 -42 Y s 2154 244 m -42 Y s
 gsave  2268 1682 0 0 C 209.269 129.366 t 0 r /Helvetica-Bold findfont 64.6832 sf 0 0 m (\2551) show NC gr 
 gsave  2268 1682 0 0 C 658.247 129.366 t 0 r /Helvetica-Bold findfont 64.6832 sf 0 0 m (\2550.5) show NC gr 
 gsave  2268 1682 0 0 C 1175.71 129.366 t 0 r /Helvetica-Bold findfont 64.6832 sf 0 0 m (0) show NC gr 
 gsave  2268 1682 0 0 C 1628.49 129.366 t 0 r /Helvetica-Bold findfont 64.6832 sf 0 0 m (0.5) show NC gr 
 gsave  2268 1682 0 0 C 2138.35 129.366 t 0 r /Helvetica-Bold findfont 64.6832 sf 0 0 m (1) show NC gr  238 1514 m 1916 X s 238 1471 m 43 Y s 334 1492 m 22 Y s 430 1492 m 22 Y s 526 1492 m 22 Y s 621 1492 m 22 Y s 717 1471 m 43 Y s 813 1492 m 22 Y s
 909 1492 m 22 Y s 1005 1492 m 22 Y s 1100 1492 m 22 Y s 1196 1471 m 43 Y s 1292 1492 m 22 Y s 1388 1492 m 22 Y s 1484 1492 m 22 Y s 1579 1492 m 22 Y s 1675 1471 m 43 Y s 1771 1492 m 22 Y s 1867 1492 m 22 Y s 1963 1492 m 22 Y s 2059 1492 m 22 Y s
 2154 1471 m 43 Y s 2154 1471 m 43 Y s 238 202 m 1312 Y s
 gsave  2268 1682 0 0 C 64.6832 1430.64 t 90 r /Helvetica-Bold findfont 72.293 sf 0 0 m (dx) show NC gr 
 gsave  2268 1682 0 0 C 30.4391 1419.23 t 90 r /Helvetica-Bold findfont 45.6587 sf 0 0 m ( ) show NC gr 
 gsave  2268 1682 0 0 C 64.6832 1392.59 t 90 r /Helvetica-Bold findfont 72.293 sf 0 0 m (/) show NC gr 
 gsave  2268 1682 0 0 C 30.4391 1381.18 t 90 r /Helvetica-Bold findfont 45.6587 sf 0 0 m ( ) show NC gr 
 gsave  2268 1682 0 0 C 60.8783 1107.22 t 90 r /Helvetica-Bold findfont 72.293 sf 0 0 m (\(1/N\) dN) show NC gr  291 202 m -53 X s 265 237 m -27 X s 265 271 m -27 X s 265 306 m -27 X s 291 341 m -53 X s 265 376 m -27 X s 265 411 m -27 X s 265 446 m
 -27 X s 291 480 m -53 X s 265 515 m -27 X s 265 550 m -27 X s 265 585 m -27 X s 291 620 m -53 X s 265 655 m -27 X s 265 689 m -27 X s 265 724 m -27 X s 291 759 m -53 X s 265 794 m -27 X s 265 829 m -27 X s 265 863 m -27 X s 291 898 m -53 X s 265 933
 m -27 X s 265 968 m -27 X s 265 1003 m -27 X s 291 1038 m -53 X s 265 1072 m -27 X s 265 1107 m -27 X s 265 1142 m -27 X s 291 1177 m -53 X s 265 1212 m -27 X s 265 1246 m -27 X s 265 1281 m -27 X s 291 1316 m -53 X s 265 1351 m -27 X s 265 1386 m
 -27 X s 265 1421 m -27 X s 291 1455 m -53 X s 291 1455 m -53 X s 265 1490 m -27 X s
 gsave  2268 1682 0 0 C 175.025 178.83 t 0 r /Helvetica-Bold findfont 64.6832 sf 0 0 m (0) show NC gr 
 gsave  2268 1682 0 0 C 175.025 315.806 t 0 r /Helvetica-Bold findfont 64.6832 sf 0 0 m (2) show NC gr 
 gsave  2268 1682 0 0 C 171.22 456.587 t 0 r /Helvetica-Bold findfont 64.6832 sf 0 0 m (4) show NC gr 
 gsave  2268 1682 0 0 C 175.025 593.563 t 0 r /Helvetica-Bold findfont 64.6832 sf 0 0 m (6) show NC gr 
 gsave  2268 1682 0 0 C 175.025 734.344 t 0 r /Helvetica-Bold findfont 64.6832 sf 0 0 m (8) show NC gr 
 gsave  2268 1682 0 0 C 136.976 875.125 t 0 r /Helvetica-Bold findfont 64.6832 sf 0 0 m (10) show NC gr 
 gsave  2268 1682 0 0 C 136.976 1012.1 t 0 r /Helvetica-Bold findfont 64.6832 sf 0 0 m (12) show NC gr 
 gsave  2268 1682 0 0 C 136.976 1152.88 t 0 r /Helvetica-Bold findfont 64.6832 sf 0 0 m (14) show NC gr 
 gsave  2268 1682 0 0 C 136.976 1289.86 t 0 r /Helvetica-Bold findfont 64.6832 sf 0 0 m (16) show NC gr 
 gsave  2268 1682 0 0 C 136.976 1430.64 t 0 r /Helvetica-Bold findfont 64.6832 sf 0 0 m (18) show NC gr  2154 202 m 1312 Y s 2101 202 m 53 X s 2128 237 m 26 X s 2128 271 m 26 X s 2128 306 m 26 X s 2101 341 m 53 X s 2128 376 m 26 X s 2128 411 m 26 X s
 2128 446 m 26 X s 2101 480 m 53 X s 2128 515 m 26 X s 2128 550 m 26 X s 2128 585 m 26 X s 2101 620 m 53 X s 2128 655 m 26 X s 2128 689 m 26 X s 2128 724 m 26 X s 2101 759 m 53 X s 2128 794 m 26 X s 2128 829 m 26 X s 2128 863 m 26 X s 2101 898 m 53 X
 s 2128 933 m 26 X s 2128 968 m 26 X s 2128 1003 m 26 X s 2101 1038 m 53 X s 2128 1072 m 26 X s 2128 1107 m 26 X s 2128 1142 m 26 X s 2101 1177 m 53 X s 2128 1212 m 26 X s 2128 1246 m 26 X s 2128 1281 m 26 X s 2101 1316 m 53 X s 2128 1351 m 26 X s
 2128 1386 m 26 X s 2128 1421 m 26 X s 2101 1455 m 53 X s 2101 1455 m 53 X s 2128 1490 m 26 X s 0.490196 0.545098 0.615686 c 0.95 0.95 0.95 c 0.490196 0.545098 0.615686 c 680 202 238 1312 bl 238 1312 m 680 X s 918 1312 m 202 Y s 918 1514 m -680 X s
 238 1514 m -202 Y s black 0.49 0.6 0.82 c 269 1428 m 143 X 70 Y -143 X f 0 0 0.933333 c 6 lw 269 1498 m 143 X s 269 1428 m 143 X s 412 1428 m 70 Y s 269 1428 m 70 Y s black 1 0 0 c 3 lw 412 1374 m -47 -47 d s 387 1398 m -70 -71 d s 339 1398 m -70
 -71 d s 291 1398 m -22 -23 d s 6 lw 0 0 0.933333 c 1 0 0 c 269 1398 m 143 X s 269 1327 m 143 X s 412 1327 m 71 Y s 269 1327 m 71 Y s 0 0 0.933333 c 0.49 0.6 0.82 c black 3 lw 0.49 0.6 0.82 c 238 202 m 50 Y 48 X -41 Y 48 X -2 Y 96 X -4 Y 48 X 4 Y 48
 X -3 Y 47 X -2 Y 48 X -2 Y 48 X 2 Y 48 X 2 Y 48 X 2 Y 96 X -2 Y 48 X 1 Y 48 X 1 Y 48 X -2 Y 95 X -1 Y 48 X -1 Y 48 X 5 Y 48 X -3 Y 48 X 2 Y 48 X -4 Y 48 X 4 Y 191 X 5 Y 48 X -4 Y 48 X 2 Y 48 X -3 Y 48 X 21 Y 48 X -6 Y 48 X -1 Y 48 X 4 Y 48 X 16 Y 48
 X 33 Y 48 X 76 Y 47 X 679 Y 48 X -828 Y f 6 lw 0 0 0.933333 c 0.49 0.6 0.82 c 0 0 0.933333 c 238 252 m 48 X -41 Y 48 X -2 Y 96 X -4 Y 48 X 4 Y 48 X -3 Y 47 X -2 Y 48 X -2 Y 48 X 2 Y 48 X 2 Y 48 X 2 Y 96 X -2 Y 48 X 1 Y 48 X 1 Y 48 X -2 Y 95 X -1 Y
 48 X -1 Y 48 X 5 Y 48 X -3 Y 48 X 2 Y 48 X -4 Y 48 X 4 Y 191 X 5 Y 48 X -4 Y 48 X 2 Y 48 X -3 Y 48 X 21 Y 48 X -6 Y 48 X -1 Y 48 X 4 Y 48 X 16 Y 48 X 33 Y 48 X 76 Y 47 X 679 Y 48 X -828 Y s 1 0 0 c black 3 lw 1 0 0 c 2140 216 m -14 -14 d s 2084 208
 m -6 -6 d s 2034 206 m -4 -4 d s 1986 206 m -4 -4 d s 1938 206 m -4 -4 d s 1889 205 m -3 -3 d s 1841 205 m -4 -3 d s 1793 205 m -4 -3 d s 1744 205 m -3 -3 d s 1696 205 m -3 -3 d s 1648 205 m -3 -3 d s 1599 204 m -2 -2 d s 1552 205 m -3 -3 d s 1504
 205 m -3 -3 d s 1455 205 m -2 -3 d s 1407 204 m -3 -2 d s 1359 205 m -3 -3 d s 1311 205 m -3 -3 d s 1263 205 m -3 -3 d s 1215 205 m -3 -3 d s 1167 205 m -3 -3 d s 1120 206 m -4 -4 d s 1072 206 m -4 -4 d s 1024 206 m -4 -4 d s 976 207 m -4 -5 d s 928
 206 m -5 -4 d s 880 207 m -5 -5 d s 833 208 m -6 -6 d s 785 208 m -6 -6 d s 737 208 m -6 -6 d s 691 210 m -8 -8 d s 643 210 m -8 -8 d s 596 211 m -9 -9 d s 550 213 m -11 -11 d s 503 214 m -13 -12 d s 459 218 m -17 -16 d s 417 224 m -23 -22 d s 378
 233 m -32 -31 d s 334 238 m -36 -36 d s 305 257 m -55 -55 d s 286 286 m -48 -48 d s 286 334 m -48 -48 d s 286 382 m -48 -48 d s 286 430 m -48 -48 d s 286 478 m -48 -47 d s 286 527 m -48 -48 d s 286 575 m -48 -48 d s 286 623 m -48 -48 d s 286 671 m
 -48 -48 d s 286 719 m -48 -48 d s 286 767 m -48 -48 d s 286 815 m -48 -48 d s 286 863 m -48 -48 d s 286 911 m -48 -48 d s 286 959 m -48 -47 d s 286 1008 m -48 -48 d s 286 1056 m -48 -48 d s 286 1104 m -48 -48 d s 286 1152 m -48 -48 d s 286 1200 m
 -48 -48 d s 286 1248 m -48 -48 d s 285 1295 m -47 -47 d s 6 lw 238 1295 m 48 X -1038 Y 48 X -24 Y 48 X -9 Y 48 X -6 Y 48 X -4 Y 48 X -1 Y 47 X -2 Y 48 X -1 Y 96 X -2 Y 144 X -1 Y 48 X -1 Y 48 X 1 Y 48 X -1 Y 143 X -1 Y 240 X -1 Y 48 X 1 Y 143 X -1 Y
 48 X 1 Y 288 X 1 Y 144 X 2 Y 47 X 8 Y 48 X -14 Y s black 3 lw 238 202 m 1916 X s 238 244 m -42 Y s 334 223 m -21 Y s 430 223 m -21 Y s 526 223 m -21 Y s 621 223 m -21 Y s 717 244 m -42 Y s 813 223 m -21 Y s 909 223 m -21 Y s 1005 223 m -21 Y s 1100
 223 m -21 Y s 1196 244 m -42 Y s 1292 223 m -21 Y s 1388 223 m -21 Y s 1484 223 m -21 Y s 1579 223 m -21 Y s 1675 244 m -42 Y s 1771 223 m -21 Y s 1867 223 m -21 Y s 1963 223 m -21 Y s 2059 223 m -21 Y s 2154 244 m -42 Y s 2154 244 m -42 Y s 238
 1514 m 1916 X s 238 1471 m 43 Y s 334 1492 m 22 Y s 430 1492 m 22 Y s 526 1492 m 22 Y s 621 1492 m 22 Y s 717 1471 m 43 Y s 813 1492 m 22 Y s 909 1492 m 22 Y s 1005 1492 m 22 Y s 1100 1492 m 22 Y s 1196 1471 m 43 Y s 1292 1492 m 22 Y s 1388 1492 m
 22 Y s 1484 1492 m 22 Y s 1579 1492 m 22 Y s 1675 1471 m 43 Y s 1771 1492 m 22 Y s 1867 1492 m 22 Y s 1963 1492 m 22 Y s 2059 1492 m 22 Y s 2154 1471 m 43 Y s 2154 1471 m 43 Y s 238 202 m 1312 Y s 291 202 m -53 X s 265 237 m -27 X s 265 271 m -27 X
 s 265 306 m -27 X s 291 341 m -53 X s 265 376 m -27 X s 265 411 m -27 X s 265 446 m -27 X s 291 480 m -53 X s 265 515 m -27 X s 265 550 m -27 X s 265 585 m -27 X s 291 620 m -53 X s 265 655 m -27 X s 265 689 m -27 X s 265 724 m -27 X s 291 759 m -53
 X s 265 794 m -27 X s 265 829 m -27 X s 265 863 m -27 X s 291 898 m -53 X s 265 933 m -27 X s 265 968 m -27 X s 265 1003 m -27 X s 291 1038 m -53 X s 265 1072 m -27 X s 265 1107 m -27 X s 265 1142 m -27 X s 291 1177 m -53 X s 265 1212 m -27 X s 265
 1246 m -27 X s 265 1281 m -27 X s 291 1316 m -53 X s 265 1351 m -27 X s 265 1386 m -27 X s 265 1421 m -27 X s 291 1455 m -53 X s 291 1455 m -53 X s 265 1490 m -27 X s 2154 202 m 1312 Y s 2101 202 m 53 X s 2128 237 m 26 X s 2128 271 m 26 X s 2128 306
 m 26 X s 2101 341 m 53 X s 2128 376 m 26 X s 2128 411 m 26 X s 2128 446 m 26 X s 2101 480 m 53 X s 2128 515 m 26 X s 2128 550 m 26 X s 2128 585 m 26 X s 2101 620 m 53 X s 2128 655 m 26 X s 2128 689 m 26 X s 2128 724 m 26 X s 2101 759 m 53 X s 2128
 794 m 26 X s 2128 829 m 26 X s 2128 863 m 26 X s 2101 898 m 53 X s 2128 933 m 26 X s 2128 968 m 26 X s 2128 1003 m 26 X s 2101 1038 m 53 X s 2128 1072 m 26 X s 2128 1107 m 26 X s 2128 1142 m 26 X s 2101 1177 m 53 X s 2128 1212 m 26 X s 2128 1246 m
 26 X s 2128 1281 m 26 X s 2101 1316 m 53 X s 2128 1351 m 26 X s 2128 1386 m 26 X s 2128 1421 m 26 X s 2101 1455 m 53 X s 2101 1455 m 53 X s 2128 1490 m 26 X s
 gsave  2268 1682 0 0 C 2211.02 193.403 t 90 r /Helvetica-Bold findfont 45.6587 sf 0 0 m (U/O\255flow \(S,B\): \(0.0, 0.0\)% / \(0.0, 0.0\)%) show NC gr  0.490196 0.545098 0.615686 c 0.364706 0.419608 0.490196 c 1411 96 23 1577 bf 0.490196 0.545098
 0.615686 c 23 1577 m 1411 X s 1434 1577 m 96 Y s 1434 1673 m -1411 X s 23 1673 m -96 Y s 1 1 1 c black 1 1 1 c
 gsave  2268 1682 0 0 C 76.0979 1605.67 t 0 r /Helvetica-Bold findfont 76.0979 sf 0 0 m 
 1239 1193 1138 1084 1063 1037 1008 966 945 919 898 856 814 772 751 708 687 658 611 586 565 523 481 434 388 342 299 257 228 207 155 110 47
(TMVA response for classifier: BDTG) K NC gr 
 gr  gr showpage
end
%%EOF
