%!PS-Adobe-2.0 EPSF-2.0
%%BoundingBox:  0 0 567 420
%%Title: plots/overtrain_BDTG.eps: TMVA comparison BDTG
%%Creator: ROOT Version 5.34/02
%%CreationDate: Mon Jan 28 03:21:24 2013
%%EndComments
%%BeginProlog
80 dict begin
/s {stroke} def /l {lineto} def /m {moveto} def /t {translate} def
/r {rotate} def /rl {roll}  def /R {repeat} def
/d {rlineto} def /rm {rmoveto} def /gr {grestore} def /f {eofill} def
/c {setrgbcolor} def /black {0 setgray} def /sd {setdash} def
/cl {closepath} def /sf {scalefont setfont} def /lw {setlinewidth} def
/box {m dup 0 exch d exch 0 d 0 exch neg d cl} def
/NC{systemdict begin initclip end}def/C{NC box clip newpath}def
/bl {box s} def /bf {box f} def /Y { 0 exch d} def /X { 0 d} def 
/K {{pop pop 0 moveto} exch kshow} bind def
/ita {/ang 15 def gsave [1 0 ang dup sin exch cos div 1 0 0] concat} def 
/mp {newpath /y exch def /x exch def} def
/side {[w .77 mul w .23 mul] .385 w mul sd w 0 l currentpoint t -144 r} def
/mr {mp x y w2 0 360 arc} def /m24 {mr s} def /m20 {mr f} def
/mb {mp x y w2 add m w2 neg 0 d 0 w neg d w 0 d 0 w d cl} def
/mt {mp x y w2 add m w2 neg w neg d w 0 d cl} def
/m21 {mb f} def /m25 {mb s} def /m22 {mt f} def /m26{mt s} def
/m23 {mp x y w2 sub m w2 w d w neg 0 d cl f} def
/m27 {mp x y w2 add m w3 neg w2 neg d w3 w2 neg d w3 w2 d cl s} def
/m28 {mp x w2 sub y w2 sub w3 add m w3 0 d  0 w3 neg d w3 0 d 0 w3 d w3 0 d  0 w3 d w3 neg 0 d 0 w3 d w3 neg 0 d 0 w3 neg d w3 neg 0 d cl s } def
/m29 {mp gsave x w2 sub y w2 add w3 sub m currentpoint t 4 {side} repeat cl fill gr} def
/m30 {mp gsave x w2 sub y w2 add w3 sub m currentpoint t 4 {side} repeat cl s gr} def
/m31 {mp x y w2 sub m 0 w d x w2 sub y m w 0 d x w2 sub y w2 add m w w neg d x w2 sub y w2 sub m w w d s} def
/m32 {mp x y w2 sub m w2 w d w neg 0 d cl s} def
/m33 {mp x y w2 add m w3 neg w2 neg d w3 w2 neg d w3 w2 d cl f} def
/m34 {mp x w2 sub y w2 sub w3 add m w3 0 d  0 w3 neg d w3 0 d 0 w3 d w3 0 d  0 w3 d w3 neg 0 d 0 w3 d w3 neg 0 d 0 w3 neg d w3 neg 0 d cl f } def
/m2 {mp x y w2 sub m 0 w d x w2 sub y m w 0 d s} def
/m5 {mp x w2 sub y w2 sub m w w d x w2 sub y w2 add m w w neg d s} def
/reEncode {exch findfont dup length dict begin {1 index /FID eq  {pop pop} {def} ifelse } forall /Encoding exch def currentdict end dup /FontName get exch definefont pop } def [/Times-Bold /Times-Italic /Times-BoldItalic /Helvetica /Helvetica-Oblique
 /Helvetica-Bold /Helvetica-BoldOblique /Courier /Courier-Oblique /Courier-Bold /Courier-BoldOblique /Times-Roman /AvantGarde-Book /AvantGarde-BookOblique /AvantGarde-Demi /AvantGarde-DemiOblique /Bookman-Demi /Bookman-DemiItalic /Bookman-Light
 /Bookman-LightItalic /Helvetica-Narrow /Helvetica-Narrow-Bold /Helvetica-Narrow-BoldOblique /Helvetica-Narrow-Oblique /NewCenturySchlbk-Roman /NewCenturySchlbk-Bold /NewCenturySchlbk-BoldItalic /NewCenturySchlbk-Italic /Palatino-Bold
 /Palatino-BoldItalic /Palatino-Italic /Palatino-Roman ] {ISOLatin1Encoding reEncode } forall
%%EndProlog
%%BeginSetup
%%EndSetup
newpath  gsave  .25 .25 scale  gsave  0 0 t 0.490196 0.545098 0.615686 c[  ] 0 sd 3 lw 0.941176 0.941176 0.941176 c 2268 1682 0 0 bf black 1 1 0.992157 c 1916 1312 238 202 bf black 1916 1312 238 202 bl 1 1 0.992157 c 1916 1312 238 202 bf black 1916
 1312 238 202 bl 238 202 m 1916 X s
 gsave  2268 1682 0 0 C 1609.47 30.4391 t 0 r /Helvetica-Bold findfont 72.293 sf 0 0 m (BDTG response) show NC gr  238 244 m -42 Y s 334 223 m -21 Y s 430 223 m -21 Y s 526 223 m -21 Y s 621 223 m -21 Y s 717 244 m -42 Y s 813 223 m -21 Y s 909 223 m
 -21 Y s 1005 223 m -21 Y s 1100 223 m -21 Y s 1196 244 m -42 Y s 1292 223 m -21 Y s 1388 223 m -21 Y s 1484 223 m -21 Y s 1579 223 m -21 Y s 1675 244 m -42 Y s 1771 223 m -21 Y s 1867 223 m -21 Y s 1963 223 m -21 Y s 2059 223 m -21 Y s 2154 244 m
 -42 Y s 2154 244 m -42 Y s
 gsave  2268 1682 0 0 C 209.269 129.366 t 0 r /Helvetica-Bold findfont 64.6832 sf 0 0 m (\2551) show NC gr 
 gsave  2268 1682 0 0 C 658.247 129.366 t 0 r /Helvetica-Bold findfont 64.6832 sf 0 0 m (\2550.5) show NC gr 
 gsave  2268 1682 0 0 C 1175.71 129.366 t 0 r /Helvetica-Bold findfont 64.6832 sf 0 0 m (0) show NC gr 
 gsave  2268 1682 0 0 C 1628.49 129.366 t 0 r /Helvetica-Bold findfont 64.6832 sf 0 0 m (0.5) show NC gr 
 gsave  2268 1682 0 0 C 2138.35 129.366 t 0 r /Helvetica-Bold findfont 64.6832 sf 0 0 m (1) show NC gr  238 1514 m 1916 X s 238 1471 m 43 Y s 334 1492 m 22 Y s 430 1492 m 22 Y s 526 1492 m 22 Y s 621 1492 m 22 Y s 717 1471 m 43 Y s 813 1492 m 22 Y s
 909 1492 m 22 Y s 1005 1492 m 22 Y s 1100 1492 m 22 Y s 1196 1471 m 43 Y s 1292 1492 m 22 Y s 1388 1492 m 22 Y s 1484 1492 m 22 Y s 1579 1492 m 22 Y s 1675 1471 m 43 Y s 1771 1492 m 22 Y s 1867 1492 m 22 Y s 1963 1492 m 22 Y s 2059 1492 m 22 Y s
 2154 1471 m 43 Y s 2154 1471 m 43 Y s 238 202 m 1312 Y s
 gsave  2268 1682 0 0 C 64.6832 1430.64 t 90 r /Helvetica-Bold findfont 72.293 sf 0 0 m (dx) show NC gr 
 gsave  2268 1682 0 0 C 30.4391 1419.23 t 90 r /Helvetica-Bold findfont 45.6587 sf 0 0 m ( ) show NC gr 
 gsave  2268 1682 0 0 C 64.6832 1392.59 t 90 r /Helvetica-Bold findfont 72.293 sf 0 0 m (/) show NC gr 
 gsave  2268 1682 0 0 C 30.4391 1381.18 t 90 r /Helvetica-Bold findfont 45.6587 sf 0 0 m ( ) show NC gr 
 gsave  2268 1682 0 0 C 60.8783 1107.22 t 90 r /Helvetica-Bold findfont 72.293 sf 0 0 m (\(1/N\) dN) show NC gr  291 202 m -53 X s 265 234 m -27 X s 265 266 m -27 X s 265 298 m -27 X s 291 330 m -53 X s 265 363 m -27 X s 265 395 m -27 X s 265 427 m
 -27 X s 291 459 m -53 X s 265 491 m -27 X s 265 523 m -27 X s 265 555 m -27 X s 291 587 m -53 X s 265 620 m -27 X s 265 652 m -27 X s 265 684 m -27 X s 291 716 m -53 X s 265 748 m -27 X s 265 780 m -27 X s 265 812 m -27 X s 291 845 m -53 X s 265 877
 m -27 X s 265 909 m -27 X s 265 941 m -27 X s 291 973 m -53 X s 265 1005 m -27 X s 265 1037 m -27 X s 265 1070 m -27 X s 291 1102 m -53 X s 265 1134 m -27 X s 265 1166 m -27 X s 265 1198 m -27 X s 291 1230 m -53 X s 265 1262 m -27 X s 265 1295 m -27
 X s 265 1327 m -27 X s 291 1359 m -53 X s 265 1391 m -27 X s 265 1423 m -27 X s 265 1455 m -27 X s 291 1487 m -53 X s 291 1487 m -53 X s
 gsave  2268 1682 0 0 C 175.025 178.83 t 0 r /Helvetica-Bold findfont 64.6832 sf 0 0 m (0) show NC gr 
 gsave  2268 1682 0 0 C 175.025 304.391 t 0 r /Helvetica-Bold findfont 64.6832 sf 0 0 m (2) show NC gr 
 gsave  2268 1682 0 0 C 171.22 433.758 t 0 r /Helvetica-Bold findfont 64.6832 sf 0 0 m (4) show NC gr 
 gsave  2268 1682 0 0 C 175.025 563.124 t 0 r /Helvetica-Bold findfont 64.6832 sf 0 0 m (6) show NC gr 
 gsave  2268 1682 0 0 C 175.025 692.491 t 0 r /Helvetica-Bold findfont 64.6832 sf 0 0 m (8) show NC gr 
 gsave  2268 1682 0 0 C 136.976 818.052 t 0 r /Helvetica-Bold findfont 64.6832 sf 0 0 m (10) show NC gr 
 gsave  2268 1682 0 0 C 136.976 947.418 t 0 r /Helvetica-Bold findfont 64.6832 sf 0 0 m (12) show NC gr 
 gsave  2268 1682 0 0 C 136.976 1076.78 t 0 r /Helvetica-Bold findfont 64.6832 sf 0 0 m (14) show NC gr 
 gsave  2268 1682 0 0 C 136.976 1206.15 t 0 r /Helvetica-Bold findfont 64.6832 sf 0 0 m (16) show NC gr 
 gsave  2268 1682 0 0 C 136.976 1335.52 t 0 r /Helvetica-Bold findfont 64.6832 sf 0 0 m (18) show NC gr 
 gsave  2268 1682 0 0 C 136.976 1461.08 t 0 r /Helvetica-Bold findfont 64.6832 sf 0 0 m (20) show NC gr  2154 202 m 1312 Y s 2101 202 m 53 X s 2128 234 m 26 X s 2128 266 m 26 X s 2128 298 m 26 X s 2101 330 m 53 X s 2128 363 m 26 X s 2128 395 m 26 X s
 2128 427 m 26 X s 2101 459 m 53 X s 2128 491 m 26 X s 2128 523 m 26 X s 2128 555 m 26 X s 2101 587 m 53 X s 2128 620 m 26 X s 2128 652 m 26 X s 2128 684 m 26 X s 2101 716 m 53 X s 2128 748 m 26 X s 2128 780 m 26 X s 2128 812 m 26 X s 2101 845 m 53 X
 s 2128 877 m 26 X s 2128 909 m 26 X s 2128 941 m 26 X s 2101 973 m 53 X s 2128 1005 m 26 X s 2128 1037 m 26 X s 2128 1070 m 26 X s 2101 1102 m 53 X s 2128 1134 m 26 X s 2128 1166 m 26 X s 2128 1198 m 26 X s 2101 1230 m 53 X s 2128 1262 m 26 X s 2128
 1295 m 26 X s 2128 1327 m 26 X s 2101 1359 m 53 X s 2128 1391 m 26 X s 2128 1423 m 26 X s 2128 1455 m 26 X s 2101 1487 m 53 X s 2101 1487 m 53 X s 0.490196 0.545098 0.615686 c 0.95 0.95 0.95 c 0.490196 0.545098 0.615686 c 907 202 238 1312 bl 238
 1312 m 907 X s 1145 1312 m 202 Y s 1145 1514 m -907 X s 238 1514 m -202 Y s black
 gsave  2268 1682 0 0 C 419.528 1440.3 t 0 r /Times-Italic findfont 57.0734 sf 0 0 m (Signal \(test sample\)) show NC gr  0.49 0.6 0.82 c 265 1428 m 127 X 70 Y -127 X f 0 0 0.933333 c 265 1498 m 127 X s 265 1428 m 127 X s 392 1428 m 70 Y s 265 1428 m
 70 Y s black
 gsave  2268 1682 0 0 C 419.528 1339.4 t 0 r /Times-Italic findfont 57.0734 sf 0 0 m (Background \(test sample\)) show NC gr  1 0 0 c 392 1354 m -27 -27 d s 387 1398 m -70 -71 d s 339 1398 m -70 -71 d s 291 1398 m -26 -26 d s 0 lw 0 0 0.933333 c 1 0
 0 c 3 lw 265 1398 m 127 X s 265 1327 m 127 X s 392 1327 m 71 Y s 265 1327 m 71 Y s 0 0 0.933333 c 0.49 0.6 0.82 c black 0.49 0.6 0.82 c 238 202 m 47 Y 48 X -39 Y 48 X -2 Y 96 X -3 Y 48 X 3 Y 48 X -3 Y 47 X -1 Y 48 X -2 Y 48 X 2 Y 48 X 1 Y 48 X 2 Y
 96 X -2 Y 48 X 1 Y 48 X 1 Y 48 X -2 Y 143 X -1 Y 48 X 4 Y 48 X -3 Y 48 X 2 Y 48 X -3 Y 48 X 3 Y 191 X 5 Y 48 X -4 Y 48 X 2 Y 48 X -3 Y 48 X 20 Y 48 X -6 Y 48 X -1 Y 48 X 4 Y 48 X 15 Y 48 X 31 Y 48 X 69 Y 47 X 627 Y 48 X -764 Y f 0 0 0.933333 c 0.49
 0.6 0.82 c 0 0 0.933333 c 238 249 m 48 X -39 Y 48 X -2 Y 96 X -3 Y 48 X 3 Y 48 X -3 Y 47 X -1 Y 48 X -2 Y 48 X 2 Y 48 X 1 Y 48 X 2 Y 96 X -2 Y 48 X 1 Y 48 X 1 Y 48 X -2 Y 143 X -1 Y 48 X 4 Y 48 X -3 Y 48 X 2 Y 48 X -3 Y 48 X 3 Y 191 X 5 Y 48 X -4 Y
 48 X 2 Y 48 X -3 Y 48 X 20 Y 48 X -6 Y 48 X -1 Y 48 X 4 Y 48 X 15 Y 48 X 31 Y 48 X 69 Y 47 X 627 Y 48 X -764 Y s 1 0 0 c black 1 0 0 c 2139 215 m -13 -13 d s 2084 208 m -6 -6 d s 2034 206 m -4 -4 d s 1985 206 m -3 -4 d s 1937 206 m -3 -4 d s 1888
 205 m -2 -3 d s 1840 205 m -3 -3 d s 1792 205 m -3 -3 d s 1744 204 m -3 -2 d s 1696 205 m -3 -3 d s 1648 204 m -3 -2 d s 1599 204 m -2 -2 d s 1552 205 m -3 -3 d s 1503 205 m -2 -3 d s 1455 204 m -2 -2 d s 1407 204 m -3 -2 d s 1359 205 m -3 -3 d s
 1311 204 m -3 -2 d s 1263 204 m -3 -2 d s 1215 205 m -3 -3 d s 1167 205 m -3 -3 d s 1119 205 m -3 -3 d s 1072 206 m -4 -4 d s 1024 206 m -4 -4 d s 976 206 m -4 -4 d s 928 206 m -5 -4 d s 880 206 m -5 -4 d s 833 207 m -6 -5 d s 784 207 m -5 -5 d s
 737 208 m -6 -6 d s 690 209 m -7 -7 d s 642 209 m -7 -7 d s 595 210 m -8 -8 d s 549 212 m -10 -10 d s 502 213 m -12 -11 d s 457 217 m -15 -15 d s 415 223 m -21 -21 d s 375 231 m -29 -29 d s 334 238 m -36 -36 d s 301 253 m -51 -51 d s 286 286 m -48
 -48 d s 286 334 m -48 -48 d s 286 382 m -48 -48 d s 286 430 m -48 -48 d s 286 478 m -48 -47 d s 286 527 m -48 -48 d s 286 575 m -48 -48 d s 286 623 m -48 -48 d s 286 671 m -48 -48 d s 286 719 m -48 -48 d s 286 767 m -48 -48 d s 286 815 m -48 -48 d s
 286 863 m -48 -48 d s 286 911 m -48 -48 d s 286 959 m -48 -47 d s 286 1008 m -48 -48 d s 286 1056 m -48 -48 d s 286 1104 m -48 -48 d s 286 1152 m -48 -48 d s 286 1200 m -48 -48 d s 249 1211 m -11 -11 d s 0 lw 3 lw 238 1211 m 48 X -958 Y 48 X -22 Y
 48 X -8 Y 48 X -6 Y 48 X -4 Y 48 X -1 Y 47 X -2 Y 48 X -1 Y 96 X -1 Y 48 X -1 Y 96 X -1 Y 239 X -1 Y 144 X -1 Y 96 X 1 Y 48 X -1 Y 96 X 1 Y 95 X -1 Y 96 X 1 Y 48 X -1 Y 48 X 1 Y 144 X 1 Y 144 X 2 Y 47 X 7 Y 48 X -13 Y s 0.490196 0.545098 0.615686 c
 0.95 0.95 0.95 c 0.490196 0.545098 0.615686 c 952 202 1202 1312 bl 1202 1312 m 952 X s 2154 1312 m 202 Y s 2154 1514 m -952 X s 1202 1514 m -202 Y s black
 gsave  2268 1682 0 0 C 1297.13 1440.3 t 0 r /Times-Italic findfont 57.0734 sf 0 0 m (Signal \(training sample\)) show NC gr  0 0 0.933333 c /w 21 def /w2 {w 2 div} def /w3 {w 3 div} def 1250 1463 m20 black
 gsave  2268 1682 0 0 C 1297.13 1339.4 t 0 r /Times-Italic findfont 57.0734 sf 0 0 m (Background \(training sample\)) show NC gr  1 0 0 c 1250 1362 m20 0 0 0.933333 c 1 1 1 c 0 0 0.933333 c 238 213 m 16 X s 270 213 m 16 X s 238 205 m 15 Y s 286 205 m
 15 Y s 262 213 m20 286 203 m 16 X s 318 203 m 16 X s 286 195 m 15 Y s 334 195 m 15 Y s 310 203 m20 334 204 m 16 X s 365 204 m 17 X s 334 196 m 15 Y s 382 196 m 15 Y s 358 204 m20 382 203 m 16 X s 413 203 m 17 X s 382 195 m 15 Y s 430 195 m 15 Y s
 406 203 m20 478 203 m 16 X s 509 203 m 17 X s 478 195 m 15 Y s 526 195 m 15 Y s 502 203 m20 573 207 m 17 X s 605 207 m 16 X s 573 200 m 15 Y s 621 200 m 15 Y s 597 207 m20 621 205 m 17 X s 653 205 m 16 X s 621 197 m 15 Y s 669 197 m 15 Y s 645 205
 m20 669 203 m 17 X s 701 203 m 16 X s 669 195 m 15 Y s 717 195 m 15 Y s 693 203 m20 717 206 m 17 X s 749 206 m 16 X s 717 199 m 15 Y s 765 199 m 15 Y s 741 206 m20 765 205 m 16 X s 797 205 m 16 X s 765 198 m 15 Y s 813 198 m 15 Y s 789 205 m20 813
 205 m 16 X s 845 205 m 16 X s 813 197 m 15 Y s 861 197 m 15 Y s 837 205 m20 861 206 m 16 X s 892 206 m 17 X s 861 199 m 15 Y s 909 199 m 15 Y s 885 206 m20 909 204 m 16 X s 940 204 m 17 X s 909 196 m 15 Y s 957 196 m 15 Y s 933 204 m20 957 203 m 16
 X s 988 203 m 17 X s 957 195 m 15 Y s 1005 195 m 15 Y s 981 203 m20 1005 203 m 16 X s 1036 203 m 17 X s 1005 195 m 15 Y s 1053 195 m 15 Y s 1029 203 m20 1053 205 m 16 X s 1084 205 m 16 X s 1053 198 m 15 Y s 1100 198 m 15 Y s 1076 205 m20 1100 205 m
 17 X s 1132 205 m 16 X s 1100 197 m 15 Y s 1148 197 m 15 Y s 1124 205 m20 1148 205 m 17 X s 1180 205 m 16 X s 1148 197 m 15 Y s 1196 197 m 15 Y s 1172 205 m20 1196 204 m 17 X s 1228 204 m 16 X s 1196 196 m 15 Y s 1244 196 m 15 Y s 1220 204 m20 1244
 204 m 16 X s 1276 204 m 16 X s 1244 196 m 15 Y s 1292 196 m 15 Y s 1268 204 m20 1292 207 m 16 X s 1324 207 m 16 X s 1292 200 m 15 Y s 1340 200 m 15 Y s 1316 207 m20 1340 210 m 16 X s 1371 210 m 17 X s 1340 202 m 16 Y s 1388 202 m 16 Y s 1364 210 m20
 1388 207 m 16 X s 1419 207 m 17 X s 1388 200 m 15 Y s 1436 200 m 15 Y s 1412 207 m20 1436 205 m 16 X s 1467 205 m 17 X s 1436 198 m 15 Y s 1484 198 m 15 Y s 1460 205 m20 1484 207 m 16 X s 1515 207 m 17 X s 1484 200 m 15 Y s 1532 200 m 15 Y s 1508
 207 m20 1532 210 m 16 X s 1563 210 m 16 X s 1532 202 m 16 Y s 1579 202 m 16 Y s 1556 210 m20 1579 207 m 17 X s 1611 207 m 16 X s 1579 200 m 15 Y s 1627 200 m 15 Y s 1603 207 m20 1627 212 m 17 X s 1659 212 m 16 X s 1627 204 m 15 Y s 1675 204 m 15 Y s
 1651 212 m20 1675 218 m 17 X s 1707 218 m 16 X s 1675 211 m 15 Y s 1723 211 m 15 Y s 1699 218 m20 1723 210 m 17 X s 1755 210 m 16 X s 1723 202 m 16 Y s 1771 202 m 16 Y s 1747 210 m20 1771 217 m 16 X s 1803 217 m 16 X s 1771 210 m 15 Y s 1819 210 m
 15 Y s 1795 217 m20 1819 223 m 16 X s 1851 223 m 16 X s 1819 215 m 15 Y s 1867 215 m 15 Y s 1843 223 m20 1867 222 m 16 X s 1898 222 m 17 X s 1867 214 m 16 Y s 1915 214 m 16 Y s 1891 222 m20 1915 223 m 16 X s 1946 223 m 17 X s 1915 215 m 15 Y s 1963
 215 m 15 Y s 1939 223 m20 1963 239 m 16 X s 1994 239 m 17 X s 1963 232 m 15 Y s 2011 232 m 15 Y s 1987 239 m20 2011 262 m 16 X s 2042 262 m 17 X s 2011 255 m 15 Y s 2059 255 m 15 Y s 2035 262 m20 2082 324 m 4 Y s 2082 343 m 4 Y s 2059 336 m 16 X s
 2090 336 m 16 X s 2075 324 m 15 X s 2075 347 m 15 X s 2059 328 m 15 Y s 2106 328 m 15 Y s 2082 336 m20 2130 1016 m 21 Y s 2130 1052 m 20 Y s 2106 1044 m 17 X s 2138 1044 m 16 X s 2123 1016 m 15 X s 2123 1072 m 15 X s 2106 1037 m 15 Y s 2154 1037 m
 15 Y s 2130 1044 m20 1 0 0 c 1 1 1 c 1 0 0 c 238 1211 m 16 X s 270 1211 m 16 X s 238 1203 m 15 Y s 286 1203 m 15 Y s 262 1211 m20 286 255 m 16 X s 318 255 m 16 X s 286 247 m 16 Y s 334 247 m 16 Y s 310 255 m20 334 231 m 16 X s 365 231 m 17 X s 334
 223 m 15 Y s 382 223 m 15 Y s 358 231 m20 382 221 m 16 X s 413 221 m 17 X s 382 214 m 15 Y s 430 214 m 15 Y s 406 221 m20 430 217 m 16 X s 461 217 m 17 X s 430 209 m 15 Y s 478 209 m 15 Y s 454 217 m20 478 213 m 16 X s 509 213 m 17 X s 478 206 m 15
 Y s 526 206 m 15 Y s 502 213 m20 526 212 m 16 X s 557 212 m 16 X s 526 205 m 15 Y s 573 205 m 15 Y s 549 212 m20 573 210 m 17 X s 605 210 m 16 X s 573 202 m 16 Y s 621 202 m 16 Y s 597 210 m20 621 210 m 17 X s 653 210 m 16 X s 621 202 m 15 Y s 669
 202 m 15 Y s 645 210 m20 669 208 m 17 X s 701 208 m 16 X s 669 200 m 16 Y s 717 200 m 16 Y s 693 208 m20 717 208 m 17 X s 749 208 m 16 X s 717 200 m 15 Y s 765 200 m 15 Y s 741 208 m20 765 207 m 16 X s 797 207 m 16 X s 765 200 m 15 Y s 813 200 m 15
 Y s 789 207 m20 813 207 m 16 X s 845 207 m 16 X s 813 199 m 16 Y s 861 199 m 16 Y s 837 207 m20 861 206 m 16 X s 892 206 m 17 X s 861 199 m 15 Y s 909 199 m 15 Y s 885 206 m20 909 206 m 16 X s 940 206 m 17 X s 909 199 m 15 Y s 957 199 m 15 Y s 933
 206 m20 957 206 m 16 X s 988 206 m 17 X s 957 198 m 15 Y s 1005 198 m 15 Y s 981 206 m20 1005 206 m 16 X s 1036 206 m 17 X s 1005 198 m 16 Y s 1053 198 m 16 Y s 1029 206 m20 1053 205 m 16 X s 1084 205 m 16 X s 1053 198 m 15 Y s 1100 198 m 15 Y s
 1076 205 m20 1100 205 m 17 X s 1132 205 m 16 X s 1100 197 m 15 Y s 1148 197 m 15 Y s 1124 205 m20 1148 205 m 17 X s 1180 205 m 16 X s 1148 198 m 15 Y s 1196 198 m 15 Y s 1172 205 m20 1196 205 m 17 X s 1228 205 m 16 X s 1196 197 m 16 Y s 1244 197 m
 16 Y s 1220 205 m20 1244 205 m 16 X s 1276 205 m 16 X s 1244 198 m 15 Y s 1292 198 m 15 Y s 1268 205 m20 1292 205 m 16 X s 1324 205 m 16 X s 1292 197 m 16 Y s 1340 197 m 16 Y s 1316 205 m20 1340 205 m 16 X s 1371 205 m 17 X s 1340 197 m 15 Y s 1388
 197 m 15 Y s 1364 205 m20 1388 205 m 16 X s 1419 205 m 17 X s 1388 197 m 15 Y s 1436 197 m 15 Y s 1412 205 m20 1436 204 m 16 X s 1467 204 m 17 X s 1436 197 m 15 Y s 1484 197 m 15 Y s 1460 204 m20 1484 205 m 16 X s 1515 205 m 17 X s 1484 197 m 15 Y s
 1532 197 m 15 Y s 1508 205 m20 1532 204 m 16 X s 1563 204 m 16 X s 1532 197 m 15 Y s 1579 197 m 15 Y s 1556 204 m20 1579 204 m 17 X s 1611 204 m 16 X s 1579 197 m 15 Y s 1627 197 m 15 Y s 1603 204 m20 1627 204 m 17 X s 1659 204 m 16 X s 1627 197 m
 15 Y s 1675 197 m 15 Y s 1651 204 m20 1675 204 m 17 X s 1707 204 m 16 X s 1675 196 m 16 Y s 1723 196 m 16 Y s 1699 204 m20 1723 204 m 17 X s 1755 204 m 16 X s 1723 197 m 15 Y s 1771 197 m 15 Y s 1747 204 m20 1771 205 m 16 X s 1803 205 m 16 X s 1771
 197 m 15 Y s 1819 197 m 15 Y s 1795 205 m20 1819 204 m 16 X s 1851 204 m 16 X s 1819 197 m 15 Y s 1867 197 m 15 Y s 1843 204 m20 1867 205 m 16 X s 1898 205 m 17 X s 1867 197 m 15 Y s 1915 197 m 15 Y s 1891 205 m20 1915 206 m 16 X s 1946 206 m 17 X s
 1915 198 m 15 Y s 1963 198 m 15 Y s 1939 206 m20 1963 205 m 16 X s 1994 205 m 17 X s 1963 198 m 15 Y s 2011 198 m 15 Y s 1987 205 m20 2011 207 m 16 X s 2042 207 m 17 X s 2011 199 m 15 Y s 2059 199 m 15 Y s 2035 207 m20 2059 208 m 16 X s 2090 208 m
 16 X s 2059 200 m 15 Y s 2106 200 m 15 Y s 2082 208 m20 2106 214 m 17 X s 2138 214 m 16 X s 2106 207 m 15 Y s 2154 207 m 15 Y s 2130 214 m20 black
 gsave  2268 1682 0 0 C 272.126 1244.5 t 0 r /Helvetica-Bold findfont 49.4636 sf 0 0 m 
 1719 1691 1677 1663 1649 1635 1618 1604 1577 1549 1524 1496 1482 1454 1440 1411 1397 1369 1352 1338 1324 1310 1280 1252 1221 1190 1171 1140 1126 1110 1079 1048 1018 987 967 937 909 881 853 822 806 792 778 750 719 689 675 647 633 616 599 571 544 527
 513 485 454 424 404 390 346 312 296 267 237 217 187 156 126 81 67 36
(Kolmogorov\255Smirnov test: signal \(background\) probability = 0.0116 \(    1\)) K NC gr  238 202 m 1916 X s 238 244 m -42 Y s 334 223 m -21 Y s 430 223 m -21 Y s 526 223 m -21 Y s 621 223 m -21 Y s 717 244 m -42 Y s 813 223 m -21 Y s 909 223 m -21
 Y s 1005 223 m -21 Y s 1100 223 m -21 Y s 1196 244 m -42 Y s 1292 223 m -21 Y s 1388 223 m -21 Y s 1484 223 m -21 Y s 1579 223 m -21 Y s 1675 244 m -42 Y s 1771 223 m -21 Y s 1867 223 m -21 Y s 1963 223 m -21 Y s 2059 223 m -21 Y s 2154 244 m -42 Y
 s 2154 244 m -42 Y s 238 1514 m 1916 X s 238 1471 m 43 Y s 334 1492 m 22 Y s 430 1492 m 22 Y s 526 1492 m 22 Y s 621 1492 m 22 Y s 717 1471 m 43 Y s 813 1492 m 22 Y s 909 1492 m 22 Y s 1005 1492 m 22 Y s 1100 1492 m 22 Y s 1196 1471 m 43 Y s 1292
 1492 m 22 Y s 1388 1492 m 22 Y s 1484 1492 m 22 Y s 1579 1492 m 22 Y s 1675 1471 m 43 Y s 1771 1492 m 22 Y s 1867 1492 m 22 Y s 1963 1492 m 22 Y s 2059 1492 m 22 Y s 2154 1471 m 43 Y s 2154 1471 m 43 Y s 238 202 m 1312 Y s 291 202 m -53 X s 265 234
 m -27 X s 265 266 m -27 X s 265 298 m -27 X s 291 330 m -53 X s 265 363 m -27 X s 265 395 m -27 X s 265 427 m -27 X s 291 459 m -53 X s 265 491 m -27 X s 265 523 m -27 X s 265 555 m -27 X s 291 587 m -53 X s 265 620 m -27 X s 265 652 m -27 X s 265
 684 m -27 X s 291 716 m -53 X s 265 748 m -27 X s 265 780 m -27 X s 265 812 m -27 X s 291 845 m -53 X s 265 877 m -27 X s 265 909 m -27 X s 265 941 m -27 X s 291 973 m -53 X s 265 1005 m -27 X s 265 1037 m -27 X s 265 1070 m -27 X s 291 1102 m -53 X
 s 265 1134 m -27 X s 265 1166 m -27 X s 265 1198 m -27 X s 291 1230 m -53 X s 265 1262 m -27 X s 265 1295 m -27 X s 265 1327 m -27 X s 291 1359 m -53 X s 265 1391 m -27 X s 265 1423 m -27 X s 265 1455 m -27 X s 291 1487 m -53 X s 291 1487 m -53 X s
 2154 202 m 1312 Y s 2101 202 m 53 X s 2128 234 m 26 X s 2128 266 m 26 X s 2128 298 m 26 X s 2101 330 m 53 X s 2128 363 m 26 X s 2128 395 m 26 X s 2128 427 m 26 X s 2101 459 m 53 X s 2128 491 m 26 X s 2128 523 m 26 X s 2128 555 m 26 X s 2101 587 m 53
 X s 2128 620 m 26 X s 2128 652 m 26 X s 2128 684 m 26 X s 2101 716 m 53 X s 2128 748 m 26 X s 2128 780 m 26 X s 2128 812 m 26 X s 2101 845 m 53 X s 2128 877 m 26 X s 2128 909 m 26 X s 2128 941 m 26 X s 2101 973 m 53 X s 2128 1005 m 26 X s 2128 1037
 m 26 X s 2128 1070 m 26 X s 2101 1102 m 53 X s 2128 1134 m 26 X s 2128 1166 m 26 X s 2128 1198 m 26 X s 2101 1230 m 53 X s 2128 1262 m 26 X s 2128 1295 m 26 X s 2128 1327 m 26 X s 2101 1359 m 53 X s 2128 1391 m 26 X s 2128 1423 m 26 X s 2128 1455 m
 26 X s 2101 1487 m 53 X s 2101 1487 m 53 X s
 gsave  2268 1682 0 0 C 2211.02 193.403 t 90 r /Helvetica-Bold findfont 45.6587 sf 0 0 m (U/O\255flow \(S,B\): \(0.0, 0.0\)% / \(0.0, 0.0\)%) show NC gr  0.490196 0.545098 0.615686 c 0.364706 0.419608 0.490196 c 1587 96 23 1577 bf 0.490196 0.545098
 0.615686 c 23 1577 m 1587 X s 1610 1577 m 96 Y s 1610 1673 m -1587 X s 23 1673 m -96 Y s 1 1 1 c black 1 1 1 c
 gsave  2268 1682 0 0 C 76.0979 1605.67 t 0 r /Helvetica-Bold findfont 68.4881 sf 0 0 m 
 1409 1368 1319 1270 1251 1228 1202 1164 1145 1123 1104 1066 1028 991 972 934 915 889 848 825 806 768 731 693 652 614 595 554 512 494 452 433 396 369 347 320 283 245 204 185 138 98 42
(TMVA overtraining check for classifier: BDTG) K NC gr 
 gr  gr showpage
end
%%EOF
