%!PS-Adobe-2.0 EPSF-2.0
%%BoundingBox:  0 0 567 420
%%Title: plots/overtrain_BDT.eps: TMVA comparison BDT
%%Creator: ROOT Version 5.34/02
%%CreationDate: Mon Jan 28 03:21:25 2013
%%EndComments
%%BeginProlog
80 dict begin
/s {stroke} def /l {lineto} def /m {moveto} def /t {translate} def
/r {rotate} def /rl {roll}  def /R {repeat} def
/d {rlineto} def /rm {rmoveto} def /gr {grestore} def /f {eofill} def
/c {setrgbcolor} def /black {0 setgray} def /sd {setdash} def
/cl {closepath} def /sf {scalefont setfont} def /lw {setlinewidth} def
/box {m dup 0 exch d exch 0 d 0 exch neg d cl} def
/NC{systemdict begin initclip end}def/C{NC box clip newpath}def
/bl {box s} def /bf {box f} def /Y { 0 exch d} def /X { 0 d} def 
/K {{pop pop 0 moveto} exch kshow} bind def
/ita {/ang 15 def gsave [1 0 ang dup sin exch cos div 1 0 0] concat} def 
/mp {newpath /y exch def /x exch def} def
/side {[w .77 mul w .23 mul] .385 w mul sd w 0 l currentpoint t -144 r} def
/mr {mp x y w2 0 360 arc} def /m24 {mr s} def /m20 {mr f} def
/mb {mp x y w2 add m w2 neg 0 d 0 w neg d w 0 d 0 w d cl} def
/mt {mp x y w2 add m w2 neg w neg d w 0 d cl} def
/m21 {mb f} def /m25 {mb s} def /m22 {mt f} def /m26{mt s} def
/m23 {mp x y w2 sub m w2 w d w neg 0 d cl f} def
/m27 {mp x y w2 add m w3 neg w2 neg d w3 w2 neg d w3 w2 d cl s} def
/m28 {mp x w2 sub y w2 sub w3 add m w3 0 d  0 w3 neg d w3 0 d 0 w3 d w3 0 d  0 w3 d w3 neg 0 d 0 w3 d w3 neg 0 d 0 w3 neg d w3 neg 0 d cl s } def
/m29 {mp gsave x w2 sub y w2 add w3 sub m currentpoint t 4 {side} repeat cl fill gr} def
/m30 {mp gsave x w2 sub y w2 add w3 sub m currentpoint t 4 {side} repeat cl s gr} def
/m31 {mp x y w2 sub m 0 w d x w2 sub y m w 0 d x w2 sub y w2 add m w w neg d x w2 sub y w2 sub m w w d s} def
/m32 {mp x y w2 sub m w2 w d w neg 0 d cl s} def
/m33 {mp x y w2 add m w3 neg w2 neg d w3 w2 neg d w3 w2 d cl f} def
/m34 {mp x w2 sub y w2 sub w3 add m w3 0 d  0 w3 neg d w3 0 d 0 w3 d w3 0 d  0 w3 d w3 neg 0 d 0 w3 d w3 neg 0 d 0 w3 neg d w3 neg 0 d cl f } def
/m2 {mp x y w2 sub m 0 w d x w2 sub y m w 0 d s} def
/m5 {mp x w2 sub y w2 sub m w w d x w2 sub y w2 add m w w neg d s} def
/reEncode {exch findfont dup length dict begin {1 index /FID eq  {pop pop} {def} ifelse } forall /Encoding exch def currentdict end dup /FontName get exch definefont pop } def [/Times-Bold /Times-Italic /Times-BoldItalic /Helvetica /Helvetica-Oblique
 /Helvetica-Bold /Helvetica-BoldOblique /Courier /Courier-Oblique /Courier-Bold /Courier-BoldOblique /Times-Roman /AvantGarde-Book /AvantGarde-BookOblique /AvantGarde-Demi /AvantGarde-DemiOblique /Bookman-Demi /Bookman-DemiItalic /Bookman-Light
 /Bookman-LightItalic /Helvetica-Narrow /Helvetica-Narrow-Bold /Helvetica-Narrow-BoldOblique /Helvetica-Narrow-Oblique /NewCenturySchlbk-Roman /NewCenturySchlbk-Bold /NewCenturySchlbk-BoldItalic /NewCenturySchlbk-Italic /Palatino-Bold
 /Palatino-BoldItalic /Palatino-Italic /Palatino-Roman ] {ISOLatin1Encoding reEncode } forall
%%EndProlog
%%BeginSetup
%%EndSetup
newpath  gsave  .25 .25 scale  gsave  0 0 t 0.490196 0.545098 0.615686 c[  ] 0 sd 3 lw 0.941176 0.941176 0.941176 c 2268 1682 0 0 bf black 1 1 0.992157 c 1916 1312 238 202 bf black 1916 1312 238 202 bl 1 1 0.992157 c 1916 1312 238 202 bf black 1916
 1312 238 202 bl 238 202 m 1916 X s
 gsave  2268 1682 0 0 C 1662.74 30.4391 t 0 r /Helvetica-Bold findfont 72.293 sf 0 0 m (BDT response) show NC gr  353 244 m -42 Y s 416 223 m -21 Y s 480 223 m -21 Y s 544 223 m -21 Y s 608 244 m -42 Y s 672 223 m -21 Y s 736 223 m -21 Y s 800 223 m
 -21 Y s 864 244 m -42 Y s 928 223 m -21 Y s 992 223 m -21 Y s 1056 223 m -21 Y s 1119 244 m -42 Y s 1183 223 m -21 Y s 1247 223 m -21 Y s 1311 223 m -21 Y s 1375 244 m -42 Y s 1439 223 m -21 Y s 1503 223 m -21 Y s 1567 223 m -21 Y s 1631 244 m -42 Y
 s 1695 223 m -21 Y s 1759 223 m -21 Y s 1822 223 m -21 Y s 1886 244 m -42 Y s 1950 223 m -21 Y s 2014 223 m -21 Y s 2078 223 m -21 Y s 2142 244 m -42 Y s 353 244 m -42 Y s 289 223 m -21 Y s 2142 244 m -42 Y s
 gsave  2268 1682 0 0 C 292.977 129.366 t 0 r /Helvetica-Bold findfont 64.6832 sf 0 0 m (\2550.8) show NC gr 
 gsave  2268 1682 0 0 C 547.905 129.366 t 0 r /Helvetica-Bold findfont 64.6832 sf 0 0 m (\2550.6) show NC gr 
 gsave  2268 1682 0 0 C 806.637 129.366 t 0 r /Helvetica-Bold findfont 64.6832 sf 0 0 m (\2550.4) show NC gr 
 gsave  2268 1682 0 0 C 1061.57 129.366 t 0 r /Helvetica-Bold findfont 64.6832 sf 0 0 m (\2550.2) show NC gr 
 gsave  2268 1682 0 0 C 1354.54 129.366 t 0 r /Helvetica-Bold findfont 64.6832 sf 0 0 m (0) show NC gr 
 gsave  2268 1682 0 0 C 1582.84 129.366 t 0 r /Helvetica-Bold findfont 64.6832 sf 0 0 m (0.2) show NC gr 
 gsave  2268 1682 0 0 C 1837.76 129.366 t 0 r /Helvetica-Bold findfont 64.6832 sf 0 0 m (0.4) show NC gr 
 gsave  2268 1682 0 0 C 2092.69 129.366 t 0 r /Helvetica-Bold findfont 64.6832 sf 0 0 m (0.6) show NC gr  238 1514 m 1916 X s 353 1471 m 43 Y s 416 1492 m 22 Y s 480 1492 m 22 Y s 544 1492 m 22 Y s 608 1471 m 43 Y s 672 1492 m 22 Y s 736 1492 m 22 Y
 s 800 1492 m 22 Y s 864 1471 m 43 Y s 928 1492 m 22 Y s 992 1492 m 22 Y s 1056 1492 m 22 Y s 1119 1471 m 43 Y s 1183 1492 m 22 Y s 1247 1492 m 22 Y s 1311 1492 m 22 Y s 1375 1471 m 43 Y s 1439 1492 m 22 Y s 1503 1492 m 22 Y s 1567 1492 m 22 Y s 1631
 1471 m 43 Y s 1695 1492 m 22 Y s 1759 1492 m 22 Y s 1822 1492 m 22 Y s 1886 1471 m 43 Y s 1950 1492 m 22 Y s 2014 1492 m 22 Y s 2078 1492 m 22 Y s 2142 1471 m 43 Y s 353 1471 m 43 Y s 289 1492 m 22 Y s 2142 1471 m 43 Y s 238 202 m 1312 Y s
 gsave  2268 1682 0 0 C 64.6832 1430.64 t 90 r /Helvetica-Bold findfont 72.293 sf 0 0 m (dx) show NC gr 
 gsave  2268 1682 0 0 C 30.4391 1419.23 t 90 r /Helvetica-Bold findfont 45.6587 sf 0 0 m ( ) show NC gr 
 gsave  2268 1682 0 0 C 64.6832 1392.59 t 90 r /Helvetica-Bold findfont 72.293 sf 0 0 m (/) show NC gr 
 gsave  2268 1682 0 0 C 30.4391 1381.18 t 90 r /Helvetica-Bold findfont 45.6587 sf 0 0 m ( ) show NC gr 
 gsave  2268 1682 0 0 C 60.8783 1107.22 t 90 r /Helvetica-Bold findfont 72.293 sf 0 0 m (\(1/N\) dN) show NC gr  291 202 m -53 X s 265 245 m -27 X s 265 288 m -27 X s 265 331 m -27 X s 265 373 m -27 X s 291 416 m -53 X s 265 459 m -27 X s 265 502 m
 -27 X s 265 545 m -27 X s 265 588 m -27 X s 291 631 m -53 X s 265 674 m -27 X s 265 717 m -27 X s 265 760 m -27 X s 265 802 m -27 X s 291 845 m -53 X s 265 888 m -27 X s 265 931 m -27 X s 265 974 m -27 X s 265 1017 m -27 X s 291 1060 m -53 X s 265
 1103 m -27 X s 265 1146 m -27 X s 265 1189 m -27 X s 265 1232 m -27 X s 291 1274 m -53 X s 265 1317 m -27 X s 265 1360 m -27 X s 265 1403 m -27 X s 265 1446 m -27 X s 291 1489 m -53 X s 291 1489 m -53 X s
 gsave  2268 1682 0 0 C 175.025 178.83 t 0 r /Helvetica-Bold findfont 64.6832 sf 0 0 m (0) show NC gr 
 gsave  2268 1682 0 0 C 182.635 391.904 t 0 r /Helvetica-Bold findfont 64.6832 sf 0 0 m (1) show NC gr 
 gsave  2268 1682 0 0 C 175.025 604.978 t 0 r /Helvetica-Bold findfont 64.6832 sf 0 0 m (2) show NC gr 
 gsave  2268 1682 0 0 C 175.025 821.857 t 0 r /Helvetica-Bold findfont 64.6832 sf 0 0 m (3) show NC gr 
 gsave  2268 1682 0 0 C 171.22 1034.93 t 0 r /Helvetica-Bold findfont 64.6832 sf 0 0 m (4) show NC gr 
 gsave  2268 1682 0 0 C 175.025 1251.81 t 0 r /Helvetica-Bold findfont 64.6832 sf 0 0 m (5) show NC gr 
 gsave  2268 1682 0 0 C 175.025 1464.88 t 0 r /Helvetica-Bold findfont 64.6832 sf 0 0 m (6) show NC gr  2154 202 m 1312 Y s 2101 202 m 53 X s 2128 245 m 26 X s 2128 288 m 26 X s 2128 331 m 26 X s 2128 373 m 26 X s 2101 416 m 53 X s 2128 459 m 26 X s
 2128 502 m 26 X s 2128 545 m 26 X s 2128 588 m 26 X s 2101 631 m 53 X s 2128 674 m 26 X s 2128 717 m 26 X s 2128 760 m 26 X s 2128 802 m 26 X s 2101 845 m 53 X s 2128 888 m 26 X s 2128 931 m 26 X s 2128 974 m 26 X s 2128 1017 m 26 X s 2101 1060 m 53
 X s 2128 1103 m 26 X s 2128 1146 m 26 X s 2128 1189 m 26 X s 2128 1232 m 26 X s 2101 1274 m 53 X s 2128 1317 m 26 X s 2128 1360 m 26 X s 2128 1403 m 26 X s 2128 1446 m 26 X s 2101 1489 m 53 X s 2101 1489 m 53 X s 0.490196 0.545098 0.615686 c 0.95
 0.95 0.95 c 0.490196 0.545098 0.615686 c 907 202 238 1312 bl 238 1312 m 907 X s 1145 1312 m 202 Y s 1145 1514 m -907 X s 238 1514 m -202 Y s black
 gsave  2268 1682 0 0 C 419.528 1440.3 t 0 r /Times-Italic findfont 57.0734 sf 0 0 m (Signal \(test sample\)) show NC gr  0.49 0.6 0.82 c 265 1428 m 127 X 70 Y -127 X f 0 0 0.933333 c 265 1498 m 127 X s 265 1428 m 127 X s 392 1428 m 70 Y s 265 1428 m
 70 Y s black
 gsave  2268 1682 0 0 C 419.528 1339.4 t 0 r /Times-Italic findfont 57.0734 sf 0 0 m (Background \(test sample\)) show NC gr  1 0 0 c 392 1354 m -27 -27 d s 387 1398 m -70 -71 d s 339 1398 m -70 -71 d s 291 1398 m -26 -26 d s 0 lw 0 0 0.933333 c 1 0
 0 c 3 lw 265 1398 m 127 X s 265 1327 m 127 X s 392 1327 m 71 Y s 265 1327 m 71 Y s 0 0 0.933333 c 0.49 0.6 0.82 c black 0.49 0.6 0.82 c 238 202 m 575 X 12 Y 48 X -12 Y 48 X 4 Y 96 X 4 Y 48 X 24 Y 47 X -8 Y 48 X 17 Y 48 X 24 Y 48 X 20 Y 48 X 70 Y 48
 X 16 Y 48 X 33 Y 48 X 118 Y 48 X 122 Y 48 X 220 Y 47 X 127 Y 48 X -41 Y 48 X -45 Y 48 X -265 Y 48 X -236 Y 48 X -78 Y 48 X -45 Y 48 X 21 Y 48 X -29 Y 48 X 37 Y 48 X -49 Y 47 X -20 Y 48 X -41 Y f 0 0 0.933333 c 0.49 0.6 0.82 c 0 0 0.933333 c 238 202
 m 575 X 12 Y 48 X -12 Y 48 X 4 Y 96 X 4 Y 48 X 24 Y 47 X -8 Y 48 X 17 Y 48 X 24 Y 48 X 20 Y 48 X 70 Y 48 X 16 Y 48 X 33 Y 48 X 118 Y 48 X 122 Y 48 X 220 Y 47 X 127 Y 48 X -41 Y 48 X -45 Y 48 X -265 Y 48 X -236 Y 48 X -78 Y 48 X -45 Y 48 X 21 Y 48 X
 -29 Y 48 X 37 Y 48 X -49 Y 47 X -20 Y 48 X -41 Y s 1 0 0 c black 1 0 0 c 2126 202 m s 2078 202 m s 2030 202 m s 1982 202 m s 1934 202 m s 1886 202 m s 1837 202 m s 1789 202 m s 1742 203 m -1 -1 d s 1696 205 m -3 -3 d s 1653 210 m -8 -8 d s 1612 217
 m -15 -15 d s 1572 225 m -23 -23 d s 1532 233 m -31 -31 d s 1485 234 m -32 -32 d s 1450 247 m -46 -45 d s 1414 259 m -58 -57 d s 1388 281 m -80 -79 d s 1345 286 m -85 -84 d s 1320 310 m -108 -108 d s 1292 330 m -128 -128 d s 1265 351 m -149 -149 d s
 1244 378 m -176 -176 d s 1220 402 m -200 -200 d s 1196 427 m -224 -225 d s 1176 454 m -253 -252 d s 1148 475 m -273 -273 d s 1116 490 m -289 -288 d s 1100 523 m -321 -321 d s 1073 544 m -342 -342 d s 1044 563 m -361 -361 d s 1005 572 m -370 -370 d s
 980 595 m -393 -393 d s 945 608 m -406 -406 d s 891 603 m -401 -401 d s 840 600 m -398 -398 d s 794 601 m -268 -268 d s 493 300 m -15 -15 d s 441 249 m -11 -12 d s 407 215 m -13 -13 d s 737 593 m -164 -164 d s 528 384 m -2 -3 d s 349 205 m -3 -3 d s
 690 593 m -21 -20 d s 647 550 m -26 -25 d s 576 480 m -3 -3 d s 299 203 m -1 -1 d s 250 202 m s 0 lw 3 lw 238 202 m 48 X 1 Y 48 X 2 Y 48 X 10 Y 48 X 34 Y 48 X 51 Y 48 X 84 Y 47 X 96 Y 48 X 70 Y 48 X 43 Y 96 X 8 Y 48 X -1 Y 48 X 3 Y 48 X 5 Y 48 X -13
 Y 48 X -32 Y 48 X -19 Y 47 X -54 Y 48 X -36 Y 48 X -52 Y 48 X -51 Y 48 X -41 Y 48 X -24 Y 48 X -27 Y 48 X -12 Y 48 X -13 Y 48 X -9 Y 47 X -8 Y 48 X -7 Y 48 X -5 Y 48 X -2 Y 48 X -1 Y 383 X s 0.490196 0.545098 0.615686 c 0.95 0.95 0.95 c 0.490196
 0.545098 0.615686 c 952 202 1202 1312 bl 1202 1312 m 952 X s 2154 1312 m 202 Y s 2154 1514 m -952 X s 1202 1514 m -202 Y s black
 gsave  2268 1682 0 0 C 1297.13 1440.3 t 0 r /Times-Italic findfont 57.0734 sf 0 0 m (Signal \(training sample\)) show NC gr  0 0 0.933333 c /w 21 def /w2 {w 2 div} def /w3 {w 3 div} def 1250 1463 m20 black
 gsave  2268 1682 0 0 C 1297.13 1339.4 t 0 r /Times-Italic findfont 57.0734 sf 0 0 m (Background \(training sample\)) show NC gr  1 0 0 c 1250 1362 m20 0 0 0.933333 c 1 1 1 c 0 0 0.933333 c 1244 206 m 16 X s 1276 206 m 16 X s 1244 198 m 16 Y s 1292
 198 m 16 Y s 1268 206 m20 1316 230 m 5 Y s 1316 250 m 6 Y s 1292 243 m 16 X s 1324 243 m 16 X s 1308 230 m 16 X s 1308 256 m 16 X s 1292 235 m 15 Y s 1340 235 m 15 Y s 1316 243 m20 1364 328 m 17 Y s 1364 361 m 17 Y s 1340 353 m 16 X s 1371 353 m 17
 X s 1356 328 m 15 X s 1356 378 m 15 X s 1340 345 m 16 Y s 1388 345 m 16 Y s 1364 353 m20 1412 354 m 20 Y s 1412 389 m 20 Y s 1388 382 m 16 X s 1419 382 m 17 X s 1404 354 m 15 X s 1404 409 m 15 X s 1388 374 m 15 Y s 1436 374 m 15 Y s 1412 382 m20
 1460 488 m 29 Y s 1460 532 m 29 Y s 1436 525 m 16 X s 1467 525 m 17 X s 1452 488 m 15 X s 1452 561 m 15 X s 1436 517 m 15 Y s 1484 517 m 15 Y s 1460 525 m20 1508 647 m 37 Y s 1508 700 m 37 Y s 1484 692 m 16 X s 1515 692 m 17 X s 1500 647 m 15 X s
 1500 737 m 15 X s 1484 684 m 16 Y s 1532 684 m 16 Y s 1508 692 m20 1556 831 m 45 Y s 1556 892 m 45 Y s 1532 884 m 16 X s 1563 884 m 16 X s 1548 831 m 15 X s 1548 937 m 15 X s 1532 876 m 16 Y s 1579 876 m 16 Y s 1556 884 m20 1603 922 m 48 Y s 1603
 986 m 48 Y s 1579 978 m 17 X s 1611 978 m 16 X s 1596 922 m 15 X s 1596 1034 m 15 X s 1579 970 m 16 Y s 1627 970 m 16 Y s 1603 978 m20 1651 1147 m 56 Y s 1651 1218 m 57 Y s 1627 1211 m 17 X s 1659 1211 m 16 X s 1644 1147 m 15 X s 1644 1275 m 15 X s
 1627 1203 m 15 Y s 1675 1203 m 15 Y s 1651 1211 m20 1699 977 m 51 Y s 1699 1043 m 51 Y s 1675 1035 m 17 X s 1707 1035 m 16 X s 1692 977 m 15 X s 1692 1094 m 15 X s 1675 1028 m 15 Y s 1723 1028 m 15 Y s 1699 1035 m20 1747 577 m 34 Y s 1747 626 m 34 Y
 s 1723 619 m 17 X s 1755 619 m 16 X s 1740 577 m 15 X s 1740 660 m 15 X s 1723 611 m 15 Y s 1771 611 m 15 Y s 1747 619 m20 1795 385 m 22 Y s 1795 422 m 22 Y s 1771 414 m 16 X s 1803 414 m 16 X s 1787 385 m 16 X s 1787 444 m 16 X s 1771 407 m 15 Y s
 1819 407 m 15 Y s 1795 414 m20 1843 298 m 15 Y s 1843 328 m 14 Y s 1819 320 m 16 X s 1851 320 m 16 X s 1835 298 m 16 X s 1835 342 m 16 X s 1819 313 m 15 Y s 1867 313 m 15 Y s 1843 320 m20 1891 291 m 14 Y s 1891 320 m 13 Y s 1867 312 m 16 X s 1898
 312 m 17 X s 1883 291 m 15 X s 1883 333 m 15 X s 1867 305 m 15 Y s 1915 305 m 15 Y s 1891 312 m20 1939 302 m 15 Y s 1939 332 m 15 Y s 1915 324 m 16 X s 1946 324 m 17 X s 1931 302 m 15 X s 1931 347 m 15 X s 1915 317 m 15 Y s 1963 317 m 15 Y s 1939
 324 m20 1987 265 m 11 Y s 1987 291 m 11 Y s 1963 284 m 16 X s 1994 284 m 17 X s 1979 265 m 15 X s 1979 302 m 15 X s 1963 276 m 15 Y s 2011 276 m 15 Y s 1987 284 m20 2035 244 m 7 Y s 2035 267 m 7 Y s 2011 259 m 16 X s 2042 259 m 17 X s 2027 244 m 15
 X s 2027 274 m 15 X s 2011 251 m 16 Y s 2059 251 m 16 Y s 2035 259 m20 2082 251 m 9 Y s 2082 275 m 9 Y s 2059 267 m 16 X s 2090 267 m 16 X s 2075 251 m 15 X s 2075 284 m 15 X s 2059 260 m 15 Y s 2106 260 m 15 Y s 2082 267 m20 2130 237 m 6 Y s 2130
 258 m 7 Y s 2106 251 m 17 X s 2138 251 m 16 X s 2123 237 m 15 X s 2123 265 m 15 X s 2106 243 m 15 Y s 2154 243 m 15 Y s 2130 251 m20 1 0 0 c 1 1 1 c 1 0 0 c 286 202 m 16 X s 318 202 m 16 X s 286 195 m 15 Y s 334 195 m 15 Y s 310 202 m20 334 206 m 16
 X s 365 206 m 17 X s 334 198 m 15 Y s 382 198 m 15 Y s 358 206 m20 382 218 m 16 X s 413 218 m 17 X s 382 210 m 15 Y s 430 210 m 15 Y s 406 218 m20 430 248 m 16 X s 461 248 m 17 X s 430 241 m 15 Y s 478 241 m 15 Y s 454 248 m20 478 308 m 16 X s 509
 308 m 17 X s 478 301 m 15 Y s 526 301 m 15 Y s 502 308 m20 526 375 m 16 X s 557 375 m 16 X s 526 367 m 15 Y s 573 367 m 15 Y s 549 375 m20 573 478 m 17 X s 605 478 m 16 X s 573 470 m 15 Y s 621 470 m 15 Y s 597 478 m20 621 551 m 17 X s 653 551 m 16
 X s 621 544 m 15 Y s 669 544 m 15 Y s 645 551 m20 669 594 m 17 X s 701 594 m 16 X s 669 586 m 15 Y s 717 586 m 15 Y s 693 594 m20 717 595 m 17 X s 749 595 m 16 X s 717 588 m 15 Y s 765 588 m 15 Y s 741 595 m20 765 609 m 16 X s 797 609 m 16 X s 765
 602 m 15 Y s 813 602 m 15 Y s 789 609 m20 813 601 m 16 X s 845 601 m 16 X s 813 593 m 16 Y s 861 593 m 16 Y s 837 601 m20 861 611 m 16 X s 892 611 m 17 X s 861 603 m 15 Y s 909 603 m 15 Y s 885 611 m20 909 602 m 16 X s 940 602 m 17 X s 909 594 m 16
 Y s 957 594 m 16 Y s 933 602 m20 957 593 m 16 X s 988 593 m 17 X s 957 586 m 15 Y s 1005 586 m 15 Y s 981 593 m20 1005 575 m 16 X s 1036 575 m 17 X s 1005 567 m 15 Y s 1053 567 m 15 Y s 1029 575 m20 1053 535 m 16 X s 1084 535 m 16 X s 1053 527 m 15
 Y s 1100 527 m 15 Y s 1076 535 m20 1100 493 m 17 X s 1132 493 m 16 X s 1100 485 m 15 Y s 1148 485 m 15 Y s 1124 493 m20 1148 450 m 17 X s 1180 450 m 16 X s 1148 442 m 15 Y s 1196 442 m 15 Y s 1172 450 m20 1196 392 m 17 X s 1228 392 m 16 X s 1196 384
 m 16 Y s 1244 384 m 16 Y s 1220 392 m20 1244 357 m 16 X s 1276 357 m 16 X s 1244 349 m 15 Y s 1292 349 m 15 Y s 1268 357 m20 1292 312 m 16 X s 1324 312 m 16 X s 1292 304 m 15 Y s 1340 304 m 15 Y s 1316 312 m20 1340 284 m 16 X s 1371 284 m 17 X s
 1340 276 m 15 Y s 1388 276 m 15 Y s 1364 284 m20 1388 259 m 16 X s 1419 259 m 17 X s 1388 252 m 15 Y s 1436 252 m 15 Y s 1412 259 m20 1436 244 m 16 X s 1467 244 m 17 X s 1436 236 m 16 Y s 1484 236 m 16 Y s 1460 244 m20 1484 235 m 16 X s 1515 235 m
 17 X s 1484 227 m 15 Y s 1532 227 m 15 Y s 1508 235 m20 1532 227 m 16 X s 1563 227 m 16 X s 1532 219 m 15 Y s 1579 219 m 15 Y s 1556 227 m20 1579 215 m 17 X s 1611 215 m 16 X s 1579 207 m 16 Y s 1627 207 m 16 Y s 1603 215 m20 1627 208 m 17 X s 1659
 208 m 16 X s 1627 200 m 16 Y s 1675 200 m 16 Y s 1651 208 m20 1675 203 m 17 X s 1707 203 m 16 X s 1675 195 m 16 Y s 1723 195 m 16 Y s 1699 203 m20 black
 gsave  2268 1682 0 0 C 272.126 1244.5 t 0 r /Helvetica-Bold findfont 49.4636 sf 0 0 m (Kolmogorov\255Smirnov test: signal \(background\) probability = 0.000695 \(0.717\)) show NC gr  238 202 m 1916 X s 353 244 m -42 Y s 416 223 m -21 Y s 480 223 m
 -21 Y s 544 223 m -21 Y s 608 244 m -42 Y s 672 223 m -21 Y s 736 223 m -21 Y s 800 223 m -21 Y s 864 244 m -42 Y s 928 223 m -21 Y s 992 223 m -21 Y s 1056 223 m -21 Y s 1119 244 m -42 Y s 1183 223 m -21 Y s 1247 223 m -21 Y s 1311 223 m -21 Y s
 1375 244 m -42 Y s 1439 223 m -21 Y s 1503 223 m -21 Y s 1567 223 m -21 Y s 1631 244 m -42 Y s 1695 223 m -21 Y s 1759 223 m -21 Y s 1822 223 m -21 Y s 1886 244 m -42 Y s 1950 223 m -21 Y s 2014 223 m -21 Y s 2078 223 m -21 Y s 2142 244 m -42 Y s
 353 244 m -42 Y s 289 223 m -21 Y s 2142 244 m -42 Y s 238 1514 m 1916 X s 353 1471 m 43 Y s 416 1492 m 22 Y s 480 1492 m 22 Y s 544 1492 m 22 Y s 608 1471 m 43 Y s 672 1492 m 22 Y s 736 1492 m 22 Y s 800 1492 m 22 Y s 864 1471 m 43 Y s 928 1492 m
 22 Y s 992 1492 m 22 Y s 1056 1492 m 22 Y s 1119 1471 m 43 Y s 1183 1492 m 22 Y s 1247 1492 m 22 Y s 1311 1492 m 22 Y s 1375 1471 m 43 Y s 1439 1492 m 22 Y s 1503 1492 m 22 Y s 1567 1492 m 22 Y s 1631 1471 m 43 Y s 1695 1492 m 22 Y s 1759 1492 m 22
 Y s 1822 1492 m 22 Y s 1886 1471 m 43 Y s 1950 1492 m 22 Y s 2014 1492 m 22 Y s 2078 1492 m 22 Y s 2142 1471 m 43 Y s 353 1471 m 43 Y s 289 1492 m 22 Y s 2142 1471 m 43 Y s 238 202 m 1312 Y s 291 202 m -53 X s 265 245 m -27 X s 265 288 m -27 X s 265
 331 m -27 X s 265 373 m -27 X s 291 416 m -53 X s 265 459 m -27 X s 265 502 m -27 X s 265 545 m -27 X s 265 588 m -27 X s 291 631 m -53 X s 265 674 m -27 X s 265 717 m -27 X s 265 760 m -27 X s 265 802 m -27 X s 291 845 m -53 X s 265 888 m -27 X s
 265 931 m -27 X s 265 974 m -27 X s 265 1017 m -27 X s 291 1060 m -53 X s 265 1103 m -27 X s 265 1146 m -27 X s 265 1189 m -27 X s 265 1232 m -27 X s 291 1274 m -53 X s 265 1317 m -27 X s 265 1360 m -27 X s 265 1403 m -27 X s 265 1446 m -27 X s 291
 1489 m -53 X s 291 1489 m -53 X s 2154 202 m 1312 Y s 2101 202 m 53 X s 2128 245 m 26 X s 2128 288 m 26 X s 2128 331 m 26 X s 2128 373 m 26 X s 2101 416 m 53 X s 2128 459 m 26 X s 2128 502 m 26 X s 2128 545 m 26 X s 2128 588 m 26 X s 2101 631 m 53 X
 s 2128 674 m 26 X s 2128 717 m 26 X s 2128 760 m 26 X s 2128 802 m 26 X s 2101 845 m 53 X s 2128 888 m 26 X s 2128 931 m 26 X s 2128 974 m 26 X s 2128 1017 m 26 X s 2101 1060 m 53 X s 2128 1103 m 26 X s 2128 1146 m 26 X s 2128 1189 m 26 X s 2128
 1232 m 26 X s 2101 1274 m 53 X s 2128 1317 m 26 X s 2128 1360 m 26 X s 2128 1403 m 26 X s 2128 1446 m 26 X s 2101 1489 m 53 X s 2101 1489 m 53 X s
 gsave  2268 1682 0 0 C 2211.02 193.403 t 90 r /Helvetica-Bold findfont 45.6587 sf 0 0 m (U/O\255flow \(S,B\): \(0.0, 0.0\)% / \(0.0, 0.0\)%) show NC gr  0.490196 0.545098 0.615686 c 0.364706 0.419608 0.490196 c 1587 96 23 1577 bf 0.490196 0.545098
 0.615686 c 23 1577 m 1587 X s 1610 1577 m 96 Y s 1610 1673 m -1587 X s 23 1673 m -96 Y s 1 1 1 c black 1 1 1 c
 gsave  2268 1682 0 0 C 102.732 1605.67 t 0 r /Helvetica-Bold findfont 68.4881 sf 0 0 m 
 1415 1364 1313 1294 1271 1243 1204 1185 1161 1142 1103 1064 1025 1005 966 947 920 877 853 834 795 756 717 674 635 615 573 530 510 467 448 409 382 358 331 292 253 210 191 142 101 43
(TMVA overtraining check for classifier: BDT) K NC gr 
 gr  gr showpage
end
%%EOF
